ISO-10303-21;
HEADER;
/* Generated by software containing ST-Developer
 * from STEP Tools, Inc. (www.steptools.com) 
 */

FILE_DESCRIPTION(
/* description */ (''),
/* implementation_level */ '2;1');

FILE_NAME(
/* name */ 'control module baseplate.step',
/* time_stamp */ '2024-03-06T21:32:44-05:00',
/* author */ (''),
/* organization */ (''),
/* preprocessor_version */ 'ST-DEVELOPER v20',
/* originating_system */ 'Autodesk Translation Framework v12.20.1.177',

/* authorisation */ '');

FILE_SCHEMA (('AUTOMOTIVE_DESIGN { 1 0 10303 214 3 1 1 }'));
ENDSEC;

DATA;
#10=MECHANICAL_DESIGN_GEOMETRIC_PRESENTATION_REPRESENTATION('',(#13),#1377);
#11=SHAPE_REPRESENTATION_RELATIONSHIP('SRR','None',#1384,#12);
#12=ADVANCED_BREP_SHAPE_REPRESENTATION('',(#14),#1376);
#13=STYLED_ITEM('',(#1394),#14);
#14=MANIFOLD_SOLID_BREP('Body1',#829);
#15=CYLINDRICAL_SURFACE('',#878,1.666);
#16=CYLINDRICAL_SURFACE('',#879,1.666);
#17=CYLINDRICAL_SURFACE('',#880,1.666);
#18=CYLINDRICAL_SURFACE('',#881,1.666);
#19=CYLINDRICAL_SURFACE('',#882,1.666);
#20=CYLINDRICAL_SURFACE('',#883,1.666);
#21=CYLINDRICAL_SURFACE('',#884,1.666);
#22=CYLINDRICAL_SURFACE('',#885,1.666);
#23=CYLINDRICAL_SURFACE('',#886,1.666);
#24=CYLINDRICAL_SURFACE('',#887,1.666);
#25=CYLINDRICAL_SURFACE('',#890,2.24999999999896);
#26=CYLINDRICAL_SURFACE('',#894,2.24999999999897);
#27=CYLINDRICAL_SURFACE('',#897,2.24999999999895);
#28=CYLINDRICAL_SURFACE('',#903,2.24999999999895);
#29=CYLINDRICAL_SURFACE('',#907,2.24999999999897);
#30=CYLINDRICAL_SURFACE('',#911,2.24999999999896);
#31=FACE_BOUND('',#92,.T.);
#32=FACE_BOUND('',#93,.T.);
#33=FACE_BOUND('',#94,.T.);
#34=FACE_BOUND('',#95,.T.);
#35=FACE_BOUND('',#96,.T.);
#36=FACE_BOUND('',#97,.T.);
#37=FACE_BOUND('',#98,.T.);
#38=FACE_BOUND('',#99,.T.);
#39=FACE_BOUND('',#100,.T.);
#40=FACE_BOUND('',#101,.T.);
#41=FACE_BOUND('',#103,.T.);
#42=FACE_BOUND('',#104,.T.);
#43=FACE_BOUND('',#105,.T.);
#44=FACE_BOUND('',#106,.T.);
#45=FACE_BOUND('',#107,.T.);
#46=FACE_BOUND('',#108,.T.);
#47=FACE_BOUND('',#109,.T.);
#48=FACE_BOUND('',#110,.T.);
#49=FACE_BOUND('',#111,.T.);
#50=FACE_BOUND('',#112,.T.);
#51=FACE_OUTER_BOUND('',#91,.T.);
#52=FACE_OUTER_BOUND('',#102,.T.);
#53=FACE_OUTER_BOUND('',#113,.T.);
#54=FACE_OUTER_BOUND('',#114,.T.);
#55=FACE_OUTER_BOUND('',#115,.T.);
#56=FACE_OUTER_BOUND('',#116,.T.);
#57=FACE_OUTER_BOUND('',#117,.T.);
#58=FACE_OUTER_BOUND('',#118,.T.);
#59=FACE_OUTER_BOUND('',#119,.T.);
#60=FACE_OUTER_BOUND('',#120,.T.);
#61=FACE_OUTER_BOUND('',#121,.T.);
#62=FACE_OUTER_BOUND('',#122,.T.);
#63=FACE_OUTER_BOUND('',#123,.T.);
#64=FACE_OUTER_BOUND('',#124,.T.);
#65=FACE_OUTER_BOUND('',#125,.T.);
#66=FACE_OUTER_BOUND('',#126,.T.);
#67=FACE_OUTER_BOUND('',#127,.T.);
#68=FACE_OUTER_BOUND('',#128,.T.);
#69=FACE_OUTER_BOUND('',#129,.T.);
#70=FACE_OUTER_BOUND('',#130,.T.);
#71=FACE_OUTER_BOUND('',#131,.T.);
#72=FACE_OUTER_BOUND('',#132,.T.);
#73=FACE_OUTER_BOUND('',#133,.T.);
#74=FACE_OUTER_BOUND('',#134,.T.);
#75=FACE_OUTER_BOUND('',#135,.T.);
#76=FACE_OUTER_BOUND('',#136,.T.);
#77=FACE_OUTER_BOUND('',#137,.T.);
#78=FACE_OUTER_BOUND('',#138,.T.);
#79=FACE_OUTER_BOUND('',#139,.T.);
#80=FACE_OUTER_BOUND('',#140,.T.);
#81=FACE_OUTER_BOUND('',#141,.T.);
#82=FACE_OUTER_BOUND('',#142,.T.);
#83=FACE_OUTER_BOUND('',#143,.T.);
#84=FACE_OUTER_BOUND('',#144,.T.);
#85=FACE_OUTER_BOUND('',#145,.T.);
#86=FACE_OUTER_BOUND('',#146,.T.);
#87=FACE_OUTER_BOUND('',#147,.T.);
#88=FACE_OUTER_BOUND('',#148,.T.);
#89=FACE_OUTER_BOUND('',#149,.T.);
#90=FACE_OUTER_BOUND('',#150,.T.);
#91=EDGE_LOOP('',(#537,#538,#539,#540,#541,#542,#543,#544,#545,#546,#547,
#548,#549,#550,#551,#552,#553,#554,#555,#556,#557,#558,#559,#560,#561,#562,
#563,#564));
#92=EDGE_LOOP('',(#565));
#93=EDGE_LOOP('',(#566));
#94=EDGE_LOOP('',(#567));
#95=EDGE_LOOP('',(#568));
#96=EDGE_LOOP('',(#569));
#97=EDGE_LOOP('',(#570));
#98=EDGE_LOOP('',(#571));
#99=EDGE_LOOP('',(#572));
#100=EDGE_LOOP('',(#573));
#101=EDGE_LOOP('',(#574));
#102=EDGE_LOOP('',(#575,#576,#577,#578,#579,#580,#581,#582,#583,#584,#585,
#586,#587,#588,#589,#590,#591,#592,#593,#594,#595,#596,#597,#598,#599,#600,
#601,#602));
#103=EDGE_LOOP('',(#603));
#104=EDGE_LOOP('',(#604));
#105=EDGE_LOOP('',(#605));
#106=EDGE_LOOP('',(#606));
#107=EDGE_LOOP('',(#607));
#108=EDGE_LOOP('',(#608));
#109=EDGE_LOOP('',(#609));
#110=EDGE_LOOP('',(#610));
#111=EDGE_LOOP('',(#611));
#112=EDGE_LOOP('',(#612));
#113=EDGE_LOOP('',(#613,#614,#615,#616));
#114=EDGE_LOOP('',(#617,#618,#619,#620));
#115=EDGE_LOOP('',(#621,#622,#623,#624));
#116=EDGE_LOOP('',(#625,#626,#627,#628));
#117=EDGE_LOOP('',(#629,#630,#631,#632));
#118=EDGE_LOOP('',(#633,#634,#635,#636));
#119=EDGE_LOOP('',(#637,#638,#639,#640));
#120=EDGE_LOOP('',(#641,#642,#643,#644));
#121=EDGE_LOOP('',(#645,#646,#647,#648));
#122=EDGE_LOOP('',(#649,#650,#651,#652));
#123=EDGE_LOOP('',(#653,#654,#655,#656));
#124=EDGE_LOOP('',(#657,#658,#659,#660));
#125=EDGE_LOOP('',(#661,#662,#663,#664));
#126=EDGE_LOOP('',(#665,#666,#667,#668));
#127=EDGE_LOOP('',(#669,#670,#671,#672));
#128=EDGE_LOOP('',(#673,#674,#675,#676));
#129=EDGE_LOOP('',(#677,#678,#679,#680));
#130=EDGE_LOOP('',(#681,#682,#683,#684));
#131=EDGE_LOOP('',(#685,#686,#687,#688));
#132=EDGE_LOOP('',(#689,#690,#691,#692));
#133=EDGE_LOOP('',(#693,#694,#695,#696));
#134=EDGE_LOOP('',(#697,#698,#699,#700));
#135=EDGE_LOOP('',(#701,#702,#703,#704));
#136=EDGE_LOOP('',(#705,#706,#707,#708));
#137=EDGE_LOOP('',(#709,#710,#711,#712));
#138=EDGE_LOOP('',(#713,#714,#715,#716));
#139=EDGE_LOOP('',(#717,#718,#719,#720));
#140=EDGE_LOOP('',(#721,#722,#723,#724));
#141=EDGE_LOOP('',(#725,#726,#727,#728));
#142=EDGE_LOOP('',(#729,#730,#731,#732));
#143=EDGE_LOOP('',(#733,#734,#735,#736));
#144=EDGE_LOOP('',(#737,#738,#739,#740));
#145=EDGE_LOOP('',(#741,#742,#743,#744));
#146=EDGE_LOOP('',(#745,#746,#747,#748));
#147=EDGE_LOOP('',(#749,#750,#751,#752));
#148=EDGE_LOOP('',(#753,#754,#755,#756));
#149=EDGE_LOOP('',(#757,#758,#759,#760));
#150=EDGE_LOOP('',(#761,#762,#763,#764));
#151=CIRCLE('',#844,2.24999999999895);
#152=CIRCLE('',#845,2.24999999999895);
#153=CIRCLE('',#846,2.24999999999897);
#154=CIRCLE('',#847,2.24999999999896);
#155=CIRCLE('',#848,2.24999999999896);
#156=CIRCLE('',#849,2.24999999999897);
#157=CIRCLE('',#850,1.666);
#158=CIRCLE('',#851,1.666);
#159=CIRCLE('',#852,1.666);
#160=CIRCLE('',#853,1.666);
#161=CIRCLE('',#854,1.666);
#162=CIRCLE('',#855,1.666);
#163=CIRCLE('',#856,1.666);
#164=CIRCLE('',#857,1.666);
#165=CIRCLE('',#858,1.666);
#166=CIRCLE('',#859,1.666);
#167=CIRCLE('',#861,2.24999999999897);
#168=CIRCLE('',#862,2.24999999999896);
#169=CIRCLE('',#863,2.24999999999896);
#170=CIRCLE('',#864,2.24999999999897);
#171=CIRCLE('',#865,2.24999999999895);
#172=CIRCLE('',#866,2.24999999999895);
#173=CIRCLE('',#867,1.666);
#174=CIRCLE('',#868,1.666);
#175=CIRCLE('',#869,1.666);
#176=CIRCLE('',#870,1.666);
#177=CIRCLE('',#871,1.666);
#178=CIRCLE('',#872,1.666);
#179=CIRCLE('',#873,1.666);
#180=CIRCLE('',#874,1.666);
#181=CIRCLE('',#875,1.666);
#182=CIRCLE('',#876,1.666);
#183=LINE('',#1147,#265);
#184=LINE('',#1151,#266);
#185=LINE('',#1153,#267);
#186=LINE('',#1155,#268);
#187=LINE('',#1157,#269);
#188=LINE('',#1159,#270);
#189=LINE('',#1163,#271);
#190=LINE('',#1165,#272);
#191=LINE('',#1167,#273);
#192=LINE('',#1171,#274);
#193=LINE('',#1173,#275);
#194=LINE('',#1175,#276);
#195=LINE('',#1179,#277);
#196=LINE('',#1181,#278);
#197=LINE('',#1183,#279);
#198=LINE('',#1185,#280);
#199=LINE('',#1187,#281);
#200=LINE('',#1191,#282);
#201=LINE('',#1193,#283);
#202=LINE('',#1195,#284);
#203=LINE('',#1199,#285);
#204=LINE('',#1200,#286);
#205=LINE('',#1224,#287);
#206=LINE('',#1226,#288);
#207=LINE('',#1228,#289);
#208=LINE('',#1232,#290);
#209=LINE('',#1234,#291);
#210=LINE('',#1236,#292);
#211=LINE('',#1240,#293);
#212=LINE('',#1242,#294);
#213=LINE('',#1244,#295);
#214=LINE('',#1246,#296);
#215=LINE('',#1248,#297);
#216=LINE('',#1252,#298);
#217=LINE('',#1254,#299);
#218=LINE('',#1256,#300);
#219=LINE('',#1260,#301);
#220=LINE('',#1262,#302);
#221=LINE('',#1264,#303);
#222=LINE('',#1268,#304);
#223=LINE('',#1270,#305);
#224=LINE('',#1272,#306);
#225=LINE('',#1274,#307);
#226=LINE('',#1276,#308);
#227=LINE('',#1299,#309);
#228=LINE('',#1300,#310);
#229=LINE('',#1302,#311);
#230=LINE('',#1304,#312);
#231=LINE('',#1306,#313);
#232=LINE('',#1308,#314);
#233=LINE('',#1310,#315);
#234=LINE('',#1312,#316);
#235=LINE('',#1314,#317);
#236=LINE('',#1316,#318);
#237=LINE('',#1318,#319);
#238=LINE('',#1320,#320);
#239=LINE('',#1322,#321);
#240=LINE('',#1323,#322);
#241=LINE('',#1325,#323);
#242=LINE('',#1327,#324);
#243=LINE('',#1329,#325);
#244=LINE('',#1331,#326);
#245=LINE('',#1333,#327);
#246=LINE('',#1335,#328);
#247=LINE('',#1337,#329);
#248=LINE('',#1340,#330);
#249=LINE('',#1342,#331);
#250=LINE('',#1344,#332);
#251=LINE('',#1346,#333);
#252=LINE('',#1348,#334);
#253=LINE('',#1350,#335);
#254=LINE('',#1352,#336);
#255=LINE('',#1354,#337);
#256=LINE('',#1356,#338);
#257=LINE('',#1358,#339);
#258=LINE('',#1360,#340);
#259=LINE('',#1362,#341);
#260=LINE('',#1364,#342);
#261=LINE('',#1366,#343);
#262=LINE('',#1368,#344);
#263=LINE('',#1370,#345);
#264=LINE('',#1372,#346);
#265=VECTOR('',#919,10.);
#266=VECTOR('',#922,10.);
#267=VECTOR('',#923,10.);
#268=VECTOR('',#924,10.);
#269=VECTOR('',#925,10.);
#270=VECTOR('',#926,10.);
#271=VECTOR('',#929,10.);
#272=VECTOR('',#930,10.);
#273=VECTOR('',#931,10.);
#274=VECTOR('',#934,10.);
#275=VECTOR('',#935,10.);
#276=VECTOR('',#936,10.);
#277=VECTOR('',#939,10.);
#278=VECTOR('',#940,10.);
#279=VECTOR('',#941,10.);
#280=VECTOR('',#942,10.);
#281=VECTOR('',#943,10.);
#282=VECTOR('',#946,10.);
#283=VECTOR('',#947,10.);
#284=VECTOR('',#948,10.);
#285=VECTOR('',#951,10.);
#286=VECTOR('',#952,10.);
#287=VECTOR('',#975,10.);
#288=VECTOR('',#976,10.);
#289=VECTOR('',#977,10.);
#290=VECTOR('',#980,10.);
#291=VECTOR('',#981,10.);
#292=VECTOR('',#982,10.);
#293=VECTOR('',#985,10.);
#294=VECTOR('',#986,10.);
#295=VECTOR('',#987,10.);
#296=VECTOR('',#988,10.);
#297=VECTOR('',#989,10.);
#298=VECTOR('',#992,10.);
#299=VECTOR('',#993,10.);
#300=VECTOR('',#994,10.);
#301=VECTOR('',#997,10.);
#302=VECTOR('',#998,10.);
#303=VECTOR('',#999,10.);
#304=VECTOR('',#1002,10.);
#305=VECTOR('',#1003,10.);
#306=VECTOR('',#1004,10.);
#307=VECTOR('',#1005,10.);
#308=VECTOR('',#1006,10.);
#309=VECTOR('',#1031,10.);
#310=VECTOR('',#1032,10.);
#311=VECTOR('',#1035,1.666);
#312=VECTOR('',#1038,1.666);
#313=VECTOR('',#1041,1.666);
#314=VECTOR('',#1044,1.666);
#315=VECTOR('',#1047,1.666);
#316=VECTOR('',#1050,1.666);
#317=VECTOR('',#1053,1.666);
#318=VECTOR('',#1056,1.666);
#319=VECTOR('',#1059,1.666);
#320=VECTOR('',#1062,1.666);
#321=VECTOR('',#1065,10.);
#322=VECTOR('',#1066,10.);
#323=VECTOR('',#1069,10.);
#324=VECTOR('',#1072,10.);
#325=VECTOR('',#1075,10.);
#326=VECTOR('',#1078,10.);
#327=VECTOR('',#1081,10.);
#328=VECTOR('',#1084,10.);
#329=VECTOR('',#1087,10.);
#330=VECTOR('',#1092,10.);
#331=VECTOR('',#1095,10.);
#332=VECTOR('',#1098,10.);
#333=VECTOR('',#1101,10.);
#334=VECTOR('',#1104,10.);
#335=VECTOR('',#1107,10.);
#336=VECTOR('',#1110,10.);
#337=VECTOR('',#1113,10.);
#338=VECTOR('',#1116,10.);
#339=VECTOR('',#1119,10.);
#340=VECTOR('',#1122,10.);
#341=VECTOR('',#1125,10.);
#342=VECTOR('',#1128,10.);
#343=VECTOR('',#1131,10.);
#344=VECTOR('',#1134,10.);
#345=VECTOR('',#1137,10.);
#346=VECTOR('',#1140,10.);
#347=VERTEX_POINT('',#1145);
#348=VERTEX_POINT('',#1146);
#349=VERTEX_POINT('',#1148);
#350=VERTEX_POINT('',#1150);
#351=VERTEX_POINT('',#1152);
#352=VERTEX_POINT('',#1154);
#353=VERTEX_POINT('',#1156);
#354=VERTEX_POINT('',#1158);
#355=VERTEX_POINT('',#1160);
#356=VERTEX_POINT('',#1162);
#357=VERTEX_POINT('',#1164);
#358=VERTEX_POINT('',#1166);
#359=VERTEX_POINT('',#1168);
#360=VERTEX_POINT('',#1170);
#361=VERTEX_POINT('',#1172);
#362=VERTEX_POINT('',#1174);
#363=VERTEX_POINT('',#1176);
#364=VERTEX_POINT('',#1178);
#365=VERTEX_POINT('',#1180);
#366=VERTEX_POINT('',#1182);
#367=VERTEX_POINT('',#1184);
#368=VERTEX_POINT('',#1186);
#369=VERTEX_POINT('',#1188);
#370=VERTEX_POINT('',#1190);
#371=VERTEX_POINT('',#1192);
#372=VERTEX_POINT('',#1194);
#373=VERTEX_POINT('',#1196);
#374=VERTEX_POINT('',#1198);
#375=VERTEX_POINT('',#1201);
#376=VERTEX_POINT('',#1203);
#377=VERTEX_POINT('',#1205);
#378=VERTEX_POINT('',#1207);
#379=VERTEX_POINT('',#1209);
#380=VERTEX_POINT('',#1211);
#381=VERTEX_POINT('',#1213);
#382=VERTEX_POINT('',#1215);
#383=VERTEX_POINT('',#1217);
#384=VERTEX_POINT('',#1219);
#385=VERTEX_POINT('',#1222);
#386=VERTEX_POINT('',#1223);
#387=VERTEX_POINT('',#1225);
#388=VERTEX_POINT('',#1227);
#389=VERTEX_POINT('',#1229);
#390=VERTEX_POINT('',#1231);
#391=VERTEX_POINT('',#1233);
#392=VERTEX_POINT('',#1235);
#393=VERTEX_POINT('',#1237);
#394=VERTEX_POINT('',#1239);
#395=VERTEX_POINT('',#1241);
#396=VERTEX_POINT('',#1243);
#397=VERTEX_POINT('',#1245);
#398=VERTEX_POINT('',#1247);
#399=VERTEX_POINT('',#1249);
#400=VERTEX_POINT('',#1251);
#401=VERTEX_POINT('',#1253);
#402=VERTEX_POINT('',#1255);
#403=VERTEX_POINT('',#1257);
#404=VERTEX_POINT('',#1259);
#405=VERTEX_POINT('',#1261);
#406=VERTEX_POINT('',#1263);
#407=VERTEX_POINT('',#1265);
#408=VERTEX_POINT('',#1267);
#409=VERTEX_POINT('',#1269);
#410=VERTEX_POINT('',#1271);
#411=VERTEX_POINT('',#1273);
#412=VERTEX_POINT('',#1275);
#413=VERTEX_POINT('',#1278);
#414=VERTEX_POINT('',#1280);
#415=VERTEX_POINT('',#1282);
#416=VERTEX_POINT('',#1284);
#417=VERTEX_POINT('',#1286);
#418=VERTEX_POINT('',#1288);
#419=VERTEX_POINT('',#1290);
#420=VERTEX_POINT('',#1292);
#421=VERTEX_POINT('',#1294);
#422=VERTEX_POINT('',#1296);
#423=EDGE_CURVE('',#347,#348,#183,.T.);
#424=EDGE_CURVE('',#348,#349,#151,.T.);
#425=EDGE_CURVE('',#349,#350,#184,.T.);
#426=EDGE_CURVE('',#350,#351,#185,.T.);
#427=EDGE_CURVE('',#352,#351,#186,.T.);
#428=EDGE_CURVE('',#353,#352,#187,.T.);
#429=EDGE_CURVE('',#354,#353,#188,.T.);
#430=EDGE_CURVE('',#354,#355,#152,.T.);
#431=EDGE_CURVE('',#356,#355,#189,.T.);
#432=EDGE_CURVE('',#357,#356,#190,.T.);
#433=EDGE_CURVE('',#358,#357,#191,.T.);
#434=EDGE_CURVE('',#358,#359,#153,.T.);
#435=EDGE_CURVE('',#360,#359,#192,.T.);
#436=EDGE_CURVE('',#361,#360,#193,.T.);
#437=EDGE_CURVE('',#362,#361,#194,.T.);
#438=EDGE_CURVE('',#362,#363,#154,.T.);
#439=EDGE_CURVE('',#364,#363,#195,.T.);
#440=EDGE_CURVE('',#365,#364,#196,.T.);
#441=EDGE_CURVE('',#366,#365,#197,.T.);
#442=EDGE_CURVE('',#366,#367,#198,.T.);
#443=EDGE_CURVE('',#367,#368,#199,.T.);
#444=EDGE_CURVE('',#368,#369,#155,.T.);
#445=EDGE_CURVE('',#369,#370,#200,.T.);
#446=EDGE_CURVE('',#370,#371,#201,.T.);
#447=EDGE_CURVE('',#371,#372,#202,.T.);
#448=EDGE_CURVE('',#372,#373,#156,.T.);
#449=EDGE_CURVE('',#373,#374,#203,.T.);
#450=EDGE_CURVE('',#374,#347,#204,.T.);
#451=EDGE_CURVE('',#375,#375,#157,.F.);
#452=EDGE_CURVE('',#376,#376,#158,.F.);
#453=EDGE_CURVE('',#377,#377,#159,.F.);
#454=EDGE_CURVE('',#378,#378,#160,.F.);
#455=EDGE_CURVE('',#379,#379,#161,.F.);
#456=EDGE_CURVE('',#380,#380,#162,.F.);
#457=EDGE_CURVE('',#381,#381,#163,.F.);
#458=EDGE_CURVE('',#382,#382,#164,.F.);
#459=EDGE_CURVE('',#383,#383,#165,.F.);
#460=EDGE_CURVE('',#384,#384,#166,.F.);
#461=EDGE_CURVE('',#385,#386,#205,.T.);
#462=EDGE_CURVE('',#386,#387,#206,.T.);
#463=EDGE_CURVE('',#387,#388,#207,.T.);
#464=EDGE_CURVE('',#388,#389,#167,.T.);
#465=EDGE_CURVE('',#389,#390,#208,.T.);
#466=EDGE_CURVE('',#390,#391,#209,.T.);
#467=EDGE_CURVE('',#391,#392,#210,.T.);
#468=EDGE_CURVE('',#392,#393,#168,.T.);
#469=EDGE_CURVE('',#393,#394,#211,.T.);
#470=EDGE_CURVE('',#394,#395,#212,.T.);
#471=EDGE_CURVE('',#395,#396,#213,.T.);
#472=EDGE_CURVE('',#396,#397,#214,.T.);
#473=EDGE_CURVE('',#397,#398,#215,.T.);
#474=EDGE_CURVE('',#398,#399,#169,.T.);
#475=EDGE_CURVE('',#399,#400,#216,.T.);
#476=EDGE_CURVE('',#400,#401,#217,.T.);
#477=EDGE_CURVE('',#401,#402,#218,.T.);
#478=EDGE_CURVE('',#402,#403,#170,.T.);
#479=EDGE_CURVE('',#403,#404,#219,.T.);
#480=EDGE_CURVE('',#404,#405,#220,.T.);
#481=EDGE_CURVE('',#405,#406,#221,.T.);
#482=EDGE_CURVE('',#406,#407,#171,.T.);
#483=EDGE_CURVE('',#407,#408,#222,.T.);
#484=EDGE_CURVE('',#408,#409,#223,.T.);
#485=EDGE_CURVE('',#409,#410,#224,.T.);
#486=EDGE_CURVE('',#410,#411,#225,.T.);
#487=EDGE_CURVE('',#411,#412,#226,.T.);
#488=EDGE_CURVE('',#412,#385,#172,.T.);
#489=EDGE_CURVE('',#413,#413,#173,.T.);
#490=EDGE_CURVE('',#414,#414,#174,.T.);
#491=EDGE_CURVE('',#415,#415,#175,.T.);
#492=EDGE_CURVE('',#416,#416,#176,.T.);
#493=EDGE_CURVE('',#417,#417,#177,.T.);
#494=EDGE_CURVE('',#418,#418,#178,.T.);
#495=EDGE_CURVE('',#419,#419,#179,.T.);
#496=EDGE_CURVE('',#420,#420,#180,.T.);
#497=EDGE_CURVE('',#421,#421,#181,.T.);
#498=EDGE_CURVE('',#422,#422,#182,.T.);
#499=EDGE_CURVE('',#348,#385,#227,.T.);
#500=EDGE_CURVE('',#347,#386,#228,.T.);
#501=EDGE_CURVE('',#422,#384,#229,.T.);
#502=EDGE_CURVE('',#421,#383,#230,.T.);
#503=EDGE_CURVE('',#420,#382,#231,.T.);
#504=EDGE_CURVE('',#419,#381,#232,.T.);
#505=EDGE_CURVE('',#418,#380,#233,.T.);
#506=EDGE_CURVE('',#417,#379,#234,.T.);
#507=EDGE_CURVE('',#416,#378,#235,.T.);
#508=EDGE_CURVE('',#415,#377,#236,.T.);
#509=EDGE_CURVE('',#414,#376,#237,.T.);
#510=EDGE_CURVE('',#413,#375,#238,.T.);
#511=EDGE_CURVE('',#366,#395,#239,.T.);
#512=EDGE_CURVE('',#367,#394,#240,.T.);
#513=EDGE_CURVE('',#368,#393,#241,.T.);
#514=EDGE_CURVE('',#369,#392,#242,.T.);
#515=EDGE_CURVE('',#370,#391,#243,.T.);
#516=EDGE_CURVE('',#371,#390,#244,.T.);
#517=EDGE_CURVE('',#372,#389,#245,.T.);
#518=EDGE_CURVE('',#373,#388,#246,.T.);
#519=EDGE_CURVE('',#374,#387,#247,.T.);
#520=EDGE_CURVE('',#349,#412,#248,.T.);
#521=EDGE_CURVE('',#350,#411,#249,.T.);
#522=EDGE_CURVE('',#351,#410,#250,.T.);
#523=EDGE_CURVE('',#352,#409,#251,.T.);
#524=EDGE_CURVE('',#353,#408,#252,.T.);
#525=EDGE_CURVE('',#354,#407,#253,.T.);
#526=EDGE_CURVE('',#355,#406,#254,.T.);
#527=EDGE_CURVE('',#356,#405,#255,.T.);
#528=EDGE_CURVE('',#357,#404,#256,.T.);
#529=EDGE_CURVE('',#358,#403,#257,.T.);
#530=EDGE_CURVE('',#359,#402,#258,.T.);
#531=EDGE_CURVE('',#360,#401,#259,.T.);
#532=EDGE_CURVE('',#361,#400,#260,.T.);
#533=EDGE_CURVE('',#362,#399,#261,.T.);
#534=EDGE_CURVE('',#363,#398,#262,.T.);
#535=EDGE_CURVE('',#364,#397,#263,.T.);
#536=EDGE_CURVE('',#365,#396,#264,.T.);
#537=ORIENTED_EDGE('',*,*,#423,.T.);
#538=ORIENTED_EDGE('',*,*,#424,.T.);
#539=ORIENTED_EDGE('',*,*,#425,.T.);
#540=ORIENTED_EDGE('',*,*,#426,.T.);
#541=ORIENTED_EDGE('',*,*,#427,.F.);
#542=ORIENTED_EDGE('',*,*,#428,.F.);
#543=ORIENTED_EDGE('',*,*,#429,.F.);
#544=ORIENTED_EDGE('',*,*,#430,.T.);
#545=ORIENTED_EDGE('',*,*,#431,.F.);
#546=ORIENTED_EDGE('',*,*,#432,.F.);
#547=ORIENTED_EDGE('',*,*,#433,.F.);
#548=ORIENTED_EDGE('',*,*,#434,.T.);
#549=ORIENTED_EDGE('',*,*,#435,.F.);
#550=ORIENTED_EDGE('',*,*,#436,.F.);
#551=ORIENTED_EDGE('',*,*,#437,.F.);
#552=ORIENTED_EDGE('',*,*,#438,.T.);
#553=ORIENTED_EDGE('',*,*,#439,.F.);
#554=ORIENTED_EDGE('',*,*,#440,.F.);
#555=ORIENTED_EDGE('',*,*,#441,.F.);
#556=ORIENTED_EDGE('',*,*,#442,.T.);
#557=ORIENTED_EDGE('',*,*,#443,.T.);
#558=ORIENTED_EDGE('',*,*,#444,.T.);
#559=ORIENTED_EDGE('',*,*,#445,.T.);
#560=ORIENTED_EDGE('',*,*,#446,.T.);
#561=ORIENTED_EDGE('',*,*,#447,.T.);
#562=ORIENTED_EDGE('',*,*,#448,.T.);
#563=ORIENTED_EDGE('',*,*,#449,.T.);
#564=ORIENTED_EDGE('',*,*,#450,.T.);
#565=ORIENTED_EDGE('',*,*,#451,.T.);
#566=ORIENTED_EDGE('',*,*,#452,.T.);
#567=ORIENTED_EDGE('',*,*,#453,.T.);
#568=ORIENTED_EDGE('',*,*,#454,.T.);
#569=ORIENTED_EDGE('',*,*,#455,.T.);
#570=ORIENTED_EDGE('',*,*,#456,.T.);
#571=ORIENTED_EDGE('',*,*,#457,.T.);
#572=ORIENTED_EDGE('',*,*,#458,.T.);
#573=ORIENTED_EDGE('',*,*,#459,.T.);
#574=ORIENTED_EDGE('',*,*,#460,.T.);
#575=ORIENTED_EDGE('',*,*,#461,.T.);
#576=ORIENTED_EDGE('',*,*,#462,.T.);
#577=ORIENTED_EDGE('',*,*,#463,.T.);
#578=ORIENTED_EDGE('',*,*,#464,.T.);
#579=ORIENTED_EDGE('',*,*,#465,.T.);
#580=ORIENTED_EDGE('',*,*,#466,.T.);
#581=ORIENTED_EDGE('',*,*,#467,.T.);
#582=ORIENTED_EDGE('',*,*,#468,.T.);
#583=ORIENTED_EDGE('',*,*,#469,.T.);
#584=ORIENTED_EDGE('',*,*,#470,.T.);
#585=ORIENTED_EDGE('',*,*,#471,.T.);
#586=ORIENTED_EDGE('',*,*,#472,.T.);
#587=ORIENTED_EDGE('',*,*,#473,.T.);
#588=ORIENTED_EDGE('',*,*,#474,.T.);
#589=ORIENTED_EDGE('',*,*,#475,.T.);
#590=ORIENTED_EDGE('',*,*,#476,.T.);
#591=ORIENTED_EDGE('',*,*,#477,.T.);
#592=ORIENTED_EDGE('',*,*,#478,.T.);
#593=ORIENTED_EDGE('',*,*,#479,.T.);
#594=ORIENTED_EDGE('',*,*,#480,.T.);
#595=ORIENTED_EDGE('',*,*,#481,.T.);
#596=ORIENTED_EDGE('',*,*,#482,.T.);
#597=ORIENTED_EDGE('',*,*,#483,.T.);
#598=ORIENTED_EDGE('',*,*,#484,.T.);
#599=ORIENTED_EDGE('',*,*,#485,.T.);
#600=ORIENTED_EDGE('',*,*,#486,.T.);
#601=ORIENTED_EDGE('',*,*,#487,.T.);
#602=ORIENTED_EDGE('',*,*,#488,.T.);
#603=ORIENTED_EDGE('',*,*,#489,.T.);
#604=ORIENTED_EDGE('',*,*,#490,.T.);
#605=ORIENTED_EDGE('',*,*,#491,.T.);
#606=ORIENTED_EDGE('',*,*,#492,.T.);
#607=ORIENTED_EDGE('',*,*,#493,.T.);
#608=ORIENTED_EDGE('',*,*,#494,.T.);
#609=ORIENTED_EDGE('',*,*,#495,.T.);
#610=ORIENTED_EDGE('',*,*,#496,.T.);
#611=ORIENTED_EDGE('',*,*,#497,.T.);
#612=ORIENTED_EDGE('',*,*,#498,.T.);
#613=ORIENTED_EDGE('',*,*,#461,.F.);
#614=ORIENTED_EDGE('',*,*,#499,.F.);
#615=ORIENTED_EDGE('',*,*,#423,.F.);
#616=ORIENTED_EDGE('',*,*,#500,.T.);
#617=ORIENTED_EDGE('',*,*,#498,.F.);
#618=ORIENTED_EDGE('',*,*,#501,.T.);
#619=ORIENTED_EDGE('',*,*,#460,.F.);
#620=ORIENTED_EDGE('',*,*,#501,.F.);
#621=ORIENTED_EDGE('',*,*,#497,.F.);
#622=ORIENTED_EDGE('',*,*,#502,.T.);
#623=ORIENTED_EDGE('',*,*,#459,.F.);
#624=ORIENTED_EDGE('',*,*,#502,.F.);
#625=ORIENTED_EDGE('',*,*,#496,.F.);
#626=ORIENTED_EDGE('',*,*,#503,.T.);
#627=ORIENTED_EDGE('',*,*,#458,.F.);
#628=ORIENTED_EDGE('',*,*,#503,.F.);
#629=ORIENTED_EDGE('',*,*,#495,.F.);
#630=ORIENTED_EDGE('',*,*,#504,.T.);
#631=ORIENTED_EDGE('',*,*,#457,.F.);
#632=ORIENTED_EDGE('',*,*,#504,.F.);
#633=ORIENTED_EDGE('',*,*,#494,.F.);
#634=ORIENTED_EDGE('',*,*,#505,.T.);
#635=ORIENTED_EDGE('',*,*,#456,.F.);
#636=ORIENTED_EDGE('',*,*,#505,.F.);
#637=ORIENTED_EDGE('',*,*,#493,.F.);
#638=ORIENTED_EDGE('',*,*,#506,.T.);
#639=ORIENTED_EDGE('',*,*,#455,.F.);
#640=ORIENTED_EDGE('',*,*,#506,.F.);
#641=ORIENTED_EDGE('',*,*,#492,.F.);
#642=ORIENTED_EDGE('',*,*,#507,.T.);
#643=ORIENTED_EDGE('',*,*,#454,.F.);
#644=ORIENTED_EDGE('',*,*,#507,.F.);
#645=ORIENTED_EDGE('',*,*,#491,.F.);
#646=ORIENTED_EDGE('',*,*,#508,.T.);
#647=ORIENTED_EDGE('',*,*,#453,.F.);
#648=ORIENTED_EDGE('',*,*,#508,.F.);
#649=ORIENTED_EDGE('',*,*,#490,.F.);
#650=ORIENTED_EDGE('',*,*,#509,.T.);
#651=ORIENTED_EDGE('',*,*,#452,.F.);
#652=ORIENTED_EDGE('',*,*,#509,.F.);
#653=ORIENTED_EDGE('',*,*,#489,.F.);
#654=ORIENTED_EDGE('',*,*,#510,.T.);
#655=ORIENTED_EDGE('',*,*,#451,.F.);
#656=ORIENTED_EDGE('',*,*,#510,.F.);
#657=ORIENTED_EDGE('',*,*,#442,.F.);
#658=ORIENTED_EDGE('',*,*,#511,.T.);
#659=ORIENTED_EDGE('',*,*,#470,.F.);
#660=ORIENTED_EDGE('',*,*,#512,.F.);
#661=ORIENTED_EDGE('',*,*,#443,.F.);
#662=ORIENTED_EDGE('',*,*,#512,.T.);
#663=ORIENTED_EDGE('',*,*,#469,.F.);
#664=ORIENTED_EDGE('',*,*,#513,.F.);
#665=ORIENTED_EDGE('',*,*,#444,.F.);
#666=ORIENTED_EDGE('',*,*,#513,.T.);
#667=ORIENTED_EDGE('',*,*,#468,.F.);
#668=ORIENTED_EDGE('',*,*,#514,.F.);
#669=ORIENTED_EDGE('',*,*,#445,.F.);
#670=ORIENTED_EDGE('',*,*,#514,.T.);
#671=ORIENTED_EDGE('',*,*,#467,.F.);
#672=ORIENTED_EDGE('',*,*,#515,.F.);
#673=ORIENTED_EDGE('',*,*,#446,.F.);
#674=ORIENTED_EDGE('',*,*,#515,.T.);
#675=ORIENTED_EDGE('',*,*,#466,.F.);
#676=ORIENTED_EDGE('',*,*,#516,.F.);
#677=ORIENTED_EDGE('',*,*,#447,.F.);
#678=ORIENTED_EDGE('',*,*,#516,.T.);
#679=ORIENTED_EDGE('',*,*,#465,.F.);
#680=ORIENTED_EDGE('',*,*,#517,.F.);
#681=ORIENTED_EDGE('',*,*,#448,.F.);
#682=ORIENTED_EDGE('',*,*,#517,.T.);
#683=ORIENTED_EDGE('',*,*,#464,.F.);
#684=ORIENTED_EDGE('',*,*,#518,.F.);
#685=ORIENTED_EDGE('',*,*,#449,.F.);
#686=ORIENTED_EDGE('',*,*,#518,.T.);
#687=ORIENTED_EDGE('',*,*,#463,.F.);
#688=ORIENTED_EDGE('',*,*,#519,.F.);
#689=ORIENTED_EDGE('',*,*,#450,.F.);
#690=ORIENTED_EDGE('',*,*,#519,.T.);
#691=ORIENTED_EDGE('',*,*,#462,.F.);
#692=ORIENTED_EDGE('',*,*,#500,.F.);
#693=ORIENTED_EDGE('',*,*,#424,.F.);
#694=ORIENTED_EDGE('',*,*,#499,.T.);
#695=ORIENTED_EDGE('',*,*,#488,.F.);
#696=ORIENTED_EDGE('',*,*,#520,.F.);
#697=ORIENTED_EDGE('',*,*,#425,.F.);
#698=ORIENTED_EDGE('',*,*,#520,.T.);
#699=ORIENTED_EDGE('',*,*,#487,.F.);
#700=ORIENTED_EDGE('',*,*,#521,.F.);
#701=ORIENTED_EDGE('',*,*,#426,.F.);
#702=ORIENTED_EDGE('',*,*,#521,.T.);
#703=ORIENTED_EDGE('',*,*,#486,.F.);
#704=ORIENTED_EDGE('',*,*,#522,.F.);
#705=ORIENTED_EDGE('',*,*,#427,.T.);
#706=ORIENTED_EDGE('',*,*,#522,.T.);
#707=ORIENTED_EDGE('',*,*,#485,.F.);
#708=ORIENTED_EDGE('',*,*,#523,.F.);
#709=ORIENTED_EDGE('',*,*,#428,.T.);
#710=ORIENTED_EDGE('',*,*,#523,.T.);
#711=ORIENTED_EDGE('',*,*,#484,.F.);
#712=ORIENTED_EDGE('',*,*,#524,.F.);
#713=ORIENTED_EDGE('',*,*,#429,.T.);
#714=ORIENTED_EDGE('',*,*,#524,.T.);
#715=ORIENTED_EDGE('',*,*,#483,.F.);
#716=ORIENTED_EDGE('',*,*,#525,.F.);
#717=ORIENTED_EDGE('',*,*,#430,.F.);
#718=ORIENTED_EDGE('',*,*,#525,.T.);
#719=ORIENTED_EDGE('',*,*,#482,.F.);
#720=ORIENTED_EDGE('',*,*,#526,.F.);
#721=ORIENTED_EDGE('',*,*,#431,.T.);
#722=ORIENTED_EDGE('',*,*,#526,.T.);
#723=ORIENTED_EDGE('',*,*,#481,.F.);
#724=ORIENTED_EDGE('',*,*,#527,.F.);
#725=ORIENTED_EDGE('',*,*,#432,.T.);
#726=ORIENTED_EDGE('',*,*,#527,.T.);
#727=ORIENTED_EDGE('',*,*,#480,.F.);
#728=ORIENTED_EDGE('',*,*,#528,.F.);
#729=ORIENTED_EDGE('',*,*,#433,.T.);
#730=ORIENTED_EDGE('',*,*,#528,.T.);
#731=ORIENTED_EDGE('',*,*,#479,.F.);
#732=ORIENTED_EDGE('',*,*,#529,.F.);
#733=ORIENTED_EDGE('',*,*,#434,.F.);
#734=ORIENTED_EDGE('',*,*,#529,.T.);
#735=ORIENTED_EDGE('',*,*,#478,.F.);
#736=ORIENTED_EDGE('',*,*,#530,.F.);
#737=ORIENTED_EDGE('',*,*,#435,.T.);
#738=ORIENTED_EDGE('',*,*,#530,.T.);
#739=ORIENTED_EDGE('',*,*,#477,.F.);
#740=ORIENTED_EDGE('',*,*,#531,.F.);
#741=ORIENTED_EDGE('',*,*,#436,.T.);
#742=ORIENTED_EDGE('',*,*,#531,.T.);
#743=ORIENTED_EDGE('',*,*,#476,.F.);
#744=ORIENTED_EDGE('',*,*,#532,.F.);
#745=ORIENTED_EDGE('',*,*,#437,.T.);
#746=ORIENTED_EDGE('',*,*,#532,.T.);
#747=ORIENTED_EDGE('',*,*,#475,.F.);
#748=ORIENTED_EDGE('',*,*,#533,.F.);
#749=ORIENTED_EDGE('',*,*,#438,.F.);
#750=ORIENTED_EDGE('',*,*,#533,.T.);
#751=ORIENTED_EDGE('',*,*,#474,.F.);
#752=ORIENTED_EDGE('',*,*,#534,.F.);
#753=ORIENTED_EDGE('',*,*,#439,.T.);
#754=ORIENTED_EDGE('',*,*,#534,.T.);
#755=ORIENTED_EDGE('',*,*,#473,.F.);
#756=ORIENTED_EDGE('',*,*,#535,.F.);
#757=ORIENTED_EDGE('',*,*,#440,.T.);
#758=ORIENTED_EDGE('',*,*,#535,.T.);
#759=ORIENTED_EDGE('',*,*,#472,.F.);
#760=ORIENTED_EDGE('',*,*,#536,.F.);
#761=ORIENTED_EDGE('',*,*,#441,.T.);
#762=ORIENTED_EDGE('',*,*,#536,.T.);
#763=ORIENTED_EDGE('',*,*,#471,.F.);
#764=ORIENTED_EDGE('',*,*,#511,.F.);
#765=PLANE('',#843);
#766=PLANE('',#860);
#767=PLANE('',#877);
#768=PLANE('',#888);
#769=PLANE('',#889);
#770=PLANE('',#891);
#771=PLANE('',#892);
#772=PLANE('',#893);
#773=PLANE('',#895);
#774=PLANE('',#896);
#775=PLANE('',#898);
#776=PLANE('',#899);
#777=PLANE('',#900);
#778=PLANE('',#901);
#779=PLANE('',#902);
#780=PLANE('',#904);
#781=PLANE('',#905);
#782=PLANE('',#906);
#783=PLANE('',#908);
#784=PLANE('',#909);
#785=PLANE('',#910);
#786=PLANE('',#912);
#787=PLANE('',#913);
#788=PLANE('',#914);
#789=ADVANCED_FACE('',(#51,#31,#32,#33,#34,#35,#36,#37,#38,#39,#40),#765,
 .F.);
#790=ADVANCED_FACE('',(#52,#41,#42,#43,#44,#45,#46,#47,#48,#49,#50),#766,
 .T.);
#791=ADVANCED_FACE('',(#53),#767,.T.);
#792=ADVANCED_FACE('',(#54),#15,.F.);
#793=ADVANCED_FACE('',(#55),#16,.F.);
#794=ADVANCED_FACE('',(#56),#17,.F.);
#795=ADVANCED_FACE('',(#57),#18,.F.);
#796=ADVANCED_FACE('',(#58),#19,.F.);
#797=ADVANCED_FACE('',(#59),#20,.F.);
#798=ADVANCED_FACE('',(#60),#21,.F.);
#799=ADVANCED_FACE('',(#61),#22,.F.);
#800=ADVANCED_FACE('',(#62),#23,.F.);
#801=ADVANCED_FACE('',(#63),#24,.F.);
#802=ADVANCED_FACE('',(#64),#768,.T.);
#803=ADVANCED_FACE('',(#65),#769,.T.);
#804=ADVANCED_FACE('',(#66),#25,.F.);
#805=ADVANCED_FACE('',(#67),#770,.T.);
#806=ADVANCED_FACE('',(#68),#771,.T.);
#807=ADVANCED_FACE('',(#69),#772,.T.);
#808=ADVANCED_FACE('',(#70),#26,.F.);
#809=ADVANCED_FACE('',(#71),#773,.T.);
#810=ADVANCED_FACE('',(#72),#774,.T.);
#811=ADVANCED_FACE('',(#73),#27,.F.);
#812=ADVANCED_FACE('',(#74),#775,.T.);
#813=ADVANCED_FACE('',(#75),#776,.T.);
#814=ADVANCED_FACE('',(#76),#777,.T.);
#815=ADVANCED_FACE('',(#77),#778,.T.);
#816=ADVANCED_FACE('',(#78),#779,.T.);
#817=ADVANCED_FACE('',(#79),#28,.F.);
#818=ADVANCED_FACE('',(#80),#780,.T.);
#819=ADVANCED_FACE('',(#81),#781,.T.);
#820=ADVANCED_FACE('',(#82),#782,.T.);
#821=ADVANCED_FACE('',(#83),#29,.F.);
#822=ADVANCED_FACE('',(#84),#783,.T.);
#823=ADVANCED_FACE('',(#85),#784,.T.);
#824=ADVANCED_FACE('',(#86),#785,.T.);
#825=ADVANCED_FACE('',(#87),#30,.F.);
#826=ADVANCED_FACE('',(#88),#786,.T.);
#827=ADVANCED_FACE('',(#89),#787,.T.);
#828=ADVANCED_FACE('',(#90),#788,.T.);
#829=CLOSED_SHELL('',(#789,#790,#791,#792,#793,#794,#795,#796,#797,#798,
#799,#800,#801,#802,#803,#804,#805,#806,#807,#808,#809,#810,#811,#812,#813,
#814,#815,#816,#817,#818,#819,#820,#821,#822,#823,#824,#825,#826,#827,#828));
#830=DERIVED_UNIT_ELEMENT(#832,1.);
#831=DERIVED_UNIT_ELEMENT(#1379,-3.);
#832=(
MASS_UNIT()
NAMED_UNIT(*)
SI_UNIT(.KILO.,.GRAM.)
);
#833=DERIVED_UNIT((#830,#831));
#834=MEASURE_REPRESENTATION_ITEM('density measure',
POSITIVE_RATIO_MEASURE(7850.),#833);
#835=PROPERTY_DEFINITION_REPRESENTATION(#840,#837);
#836=PROPERTY_DEFINITION_REPRESENTATION(#841,#838);
#837=REPRESENTATION('material name',(#839),#1376);
#838=REPRESENTATION('density',(#834),#1376);
#839=DESCRIPTIVE_REPRESENTATION_ITEM('Steel','Steel');
#840=PROPERTY_DEFINITION('material property','material name',#1386);
#841=PROPERTY_DEFINITION('material property','density of part',#1386);
#842=AXIS2_PLACEMENT_3D('',#1143,#915,#916);
#843=AXIS2_PLACEMENT_3D('',#1144,#917,#918);
#844=AXIS2_PLACEMENT_3D('',#1149,#920,#921);
#845=AXIS2_PLACEMENT_3D('',#1161,#927,#928);
#846=AXIS2_PLACEMENT_3D('',#1169,#932,#933);
#847=AXIS2_PLACEMENT_3D('',#1177,#937,#938);
#848=AXIS2_PLACEMENT_3D('',#1189,#944,#945);
#849=AXIS2_PLACEMENT_3D('',#1197,#949,#950);
#850=AXIS2_PLACEMENT_3D('',#1202,#953,#954);
#851=AXIS2_PLACEMENT_3D('',#1204,#955,#956);
#852=AXIS2_PLACEMENT_3D('',#1206,#957,#958);
#853=AXIS2_PLACEMENT_3D('',#1208,#959,#960);
#854=AXIS2_PLACEMENT_3D('',#1210,#961,#962);
#855=AXIS2_PLACEMENT_3D('',#1212,#963,#964);
#856=AXIS2_PLACEMENT_3D('',#1214,#965,#966);
#857=AXIS2_PLACEMENT_3D('',#1216,#967,#968);
#858=AXIS2_PLACEMENT_3D('',#1218,#969,#970);
#859=AXIS2_PLACEMENT_3D('',#1220,#971,#972);
#860=AXIS2_PLACEMENT_3D('',#1221,#973,#974);
#861=AXIS2_PLACEMENT_3D('',#1230,#978,#979);
#862=AXIS2_PLACEMENT_3D('',#1238,#983,#984);
#863=AXIS2_PLACEMENT_3D('',#1250,#990,#991);
#864=AXIS2_PLACEMENT_3D('',#1258,#995,#996);
#865=AXIS2_PLACEMENT_3D('',#1266,#1000,#1001);
#866=AXIS2_PLACEMENT_3D('',#1277,#1007,#1008);
#867=AXIS2_PLACEMENT_3D('',#1279,#1009,#1010);
#868=AXIS2_PLACEMENT_3D('',#1281,#1011,#1012);
#869=AXIS2_PLACEMENT_3D('',#1283,#1013,#1014);
#870=AXIS2_PLACEMENT_3D('',#1285,#1015,#1016);
#871=AXIS2_PLACEMENT_3D('',#1287,#1017,#1018);
#872=AXIS2_PLACEMENT_3D('',#1289,#1019,#1020);
#873=AXIS2_PLACEMENT_3D('',#1291,#1021,#1022);
#874=AXIS2_PLACEMENT_3D('',#1293,#1023,#1024);
#875=AXIS2_PLACEMENT_3D('',#1295,#1025,#1026);
#876=AXIS2_PLACEMENT_3D('',#1297,#1027,#1028);
#877=AXIS2_PLACEMENT_3D('',#1298,#1029,#1030);
#878=AXIS2_PLACEMENT_3D('',#1301,#1033,#1034);
#879=AXIS2_PLACEMENT_3D('',#1303,#1036,#1037);
#880=AXIS2_PLACEMENT_3D('',#1305,#1039,#1040);
#881=AXIS2_PLACEMENT_3D('',#1307,#1042,#1043);
#882=AXIS2_PLACEMENT_3D('',#1309,#1045,#1046);
#883=AXIS2_PLACEMENT_3D('',#1311,#1048,#1049);
#884=AXIS2_PLACEMENT_3D('',#1313,#1051,#1052);
#885=AXIS2_PLACEMENT_3D('',#1315,#1054,#1055);
#886=AXIS2_PLACEMENT_3D('',#1317,#1057,#1058);
#887=AXIS2_PLACEMENT_3D('',#1319,#1060,#1061);
#888=AXIS2_PLACEMENT_3D('',#1321,#1063,#1064);
#889=AXIS2_PLACEMENT_3D('',#1324,#1067,#1068);
#890=AXIS2_PLACEMENT_3D('',#1326,#1070,#1071);
#891=AXIS2_PLACEMENT_3D('',#1328,#1073,#1074);
#892=AXIS2_PLACEMENT_3D('',#1330,#1076,#1077);
#893=AXIS2_PLACEMENT_3D('',#1332,#1079,#1080);
#894=AXIS2_PLACEMENT_3D('',#1334,#1082,#1083);
#895=AXIS2_PLACEMENT_3D('',#1336,#1085,#1086);
#896=AXIS2_PLACEMENT_3D('',#1338,#1088,#1089);
#897=AXIS2_PLACEMENT_3D('',#1339,#1090,#1091);
#898=AXIS2_PLACEMENT_3D('',#1341,#1093,#1094);
#899=AXIS2_PLACEMENT_3D('',#1343,#1096,#1097);
#900=AXIS2_PLACEMENT_3D('',#1345,#1099,#1100);
#901=AXIS2_PLACEMENT_3D('',#1347,#1102,#1103);
#902=AXIS2_PLACEMENT_3D('',#1349,#1105,#1106);
#903=AXIS2_PLACEMENT_3D('',#1351,#1108,#1109);
#904=AXIS2_PLACEMENT_3D('',#1353,#1111,#1112);
#905=AXIS2_PLACEMENT_3D('',#1355,#1114,#1115);
#906=AXIS2_PLACEMENT_3D('',#1357,#1117,#1118);
#907=AXIS2_PLACEMENT_3D('',#1359,#1120,#1121);
#908=AXIS2_PLACEMENT_3D('',#1361,#1123,#1124);
#909=AXIS2_PLACEMENT_3D('',#1363,#1126,#1127);
#910=AXIS2_PLACEMENT_3D('',#1365,#1129,#1130);
#911=AXIS2_PLACEMENT_3D('',#1367,#1132,#1133);
#912=AXIS2_PLACEMENT_3D('',#1369,#1135,#1136);
#913=AXIS2_PLACEMENT_3D('',#1371,#1138,#1139);
#914=AXIS2_PLACEMENT_3D('',#1373,#1141,#1142);
#915=DIRECTION('axis',(0.,0.,1.));
#916=DIRECTION('refdir',(1.,0.,0.));
#917=DIRECTION('center_axis',(-4.12180485682118E-16,-3.19281878227874E-16,
1.));
#918=DIRECTION('ref_axis',(1.,4.09394740330527E-16,4.12180485682118E-16));
#919=DIRECTION('',(4.09394740330527E-16,-1.,-3.19281878227874E-16));
#920=DIRECTION('center_axis',(-4.12180485682118E-16,-3.19281878227874E-16,
1.));
#921=DIRECTION('ref_axis',(-1.,-4.09394740330527E-16,-4.12180485682118E-16));
#922=DIRECTION('',(-4.09394740330527E-16,1.,3.19281878227874E-16));
#923=DIRECTION('',(1.,4.09394740330527E-16,4.12180485682118E-16));
#924=DIRECTION('',(-4.09394740330527E-16,1.,3.19281878227874E-16));
#925=DIRECTION('',(1.,4.09394740330527E-16,4.12180485682118E-16));
#926=DIRECTION('',(4.09394740330527E-16,-1.,-3.19281878227874E-16));
#927=DIRECTION('center_axis',(-4.12180485682118E-16,-3.19281878227874E-16,
1.));
#928=DIRECTION('ref_axis',(1.,4.09394740330527E-16,4.12180485682118E-16));
#929=DIRECTION('',(-4.09394740330527E-16,1.,3.19281878227874E-16));
#930=DIRECTION('',(1.,4.09394740330527E-16,4.12180485682118E-16));
#931=DIRECTION('',(4.09394740330527E-16,-1.,-3.19281878227874E-16));
#932=DIRECTION('center_axis',(-4.12180485682118E-16,-3.19281878227874E-16,
1.));
#933=DIRECTION('ref_axis',(1.,4.09394740330527E-16,4.12180485682118E-16));
#934=DIRECTION('',(-4.09394740330527E-16,1.,3.19281878227874E-16));
#935=DIRECTION('',(1.,4.09394740330527E-16,4.12180485682118E-16));
#936=DIRECTION('',(4.09394740330527E-16,-1.,-3.19281878227874E-16));
#937=DIRECTION('center_axis',(-4.12180485682118E-16,-3.19281878227874E-16,
1.));
#938=DIRECTION('ref_axis',(1.,4.09394740330527E-16,4.12180485682118E-16));
#939=DIRECTION('',(-4.09394740330527E-16,1.,3.19281878227874E-16));
#940=DIRECTION('',(1.,4.09394740330527E-16,4.12180485682118E-16));
#941=DIRECTION('',(4.09394740330527E-16,-1.,-3.19281878227874E-16));
#942=DIRECTION('',(1.,4.09394740330527E-16,4.12180485682118E-16));
#943=DIRECTION('',(4.09394740330527E-16,-1.,-3.19281878227874E-16));
#944=DIRECTION('center_axis',(-4.12180485682118E-16,-3.19281878227874E-16,
1.));
#945=DIRECTION('ref_axis',(-1.,-4.09394740330527E-16,-4.12180485682118E-16));
#946=DIRECTION('',(-4.09394740330527E-16,1.,3.19281878227874E-16));
#947=DIRECTION('',(1.,4.09394740330527E-16,4.12180485682118E-16));
#948=DIRECTION('',(4.09394740330527E-16,-1.,-3.19281878227874E-16));
#949=DIRECTION('center_axis',(-4.12180485682118E-16,-3.19281878227874E-16,
1.));
#950=DIRECTION('ref_axis',(-1.,-4.09394740330527E-16,-4.12180485682118E-16));
#951=DIRECTION('',(-4.09394740330527E-16,1.,3.19281878227874E-16));
#952=DIRECTION('',(1.,4.09394740330527E-16,4.12180485682118E-16));
#953=DIRECTION('center_axis',(4.12180485682118E-16,3.19281878227874E-16,
-1.));
#954=DIRECTION('ref_axis',(-1.,1.31601759637464E-31,-4.12180485682118E-16));
#955=DIRECTION('center_axis',(4.12180485682118E-16,3.19281878227874E-16,
-1.));
#956=DIRECTION('ref_axis',(-1.,1.31601759637464E-31,-4.12180485682118E-16));
#957=DIRECTION('center_axis',(4.12180485682118E-16,3.19281878227874E-16,
-1.));
#958=DIRECTION('ref_axis',(-1.,1.31601759637464E-31,-4.12180485682118E-16));
#959=DIRECTION('center_axis',(4.12180485682118E-16,3.19281878227874E-16,
-1.));
#960=DIRECTION('ref_axis',(-1.,1.31601759637464E-31,-4.12180485682118E-16));
#961=DIRECTION('center_axis',(4.12180485682118E-16,3.19281878227874E-16,
-1.));
#962=DIRECTION('ref_axis',(-1.,1.31601759637464E-31,-4.12180485682118E-16));
#963=DIRECTION('center_axis',(4.12180485682118E-16,3.19281878227874E-16,
-1.));
#964=DIRECTION('ref_axis',(-1.,1.31601759637464E-31,-4.12180485682118E-16));
#965=DIRECTION('center_axis',(4.12180485682118E-16,3.19281878227874E-16,
-1.));
#966=DIRECTION('ref_axis',(-1.,1.31601759637464E-31,-4.12180485682118E-16));
#967=DIRECTION('center_axis',(4.12180485682118E-16,3.19281878227874E-16,
-1.));
#968=DIRECTION('ref_axis',(-1.,1.31601759637464E-31,-4.12180485682118E-16));
#969=DIRECTION('center_axis',(4.12180485682118E-16,3.19281878227874E-16,
-1.));
#970=DIRECTION('ref_axis',(-1.,1.31601759637464E-31,-4.12180485682118E-16));
#971=DIRECTION('center_axis',(4.12180485682118E-16,3.19281878227874E-16,
-1.));
#972=DIRECTION('ref_axis',(-1.,1.31601759637464E-31,-4.12180485682118E-16));
#973=DIRECTION('center_axis',(-4.12180485682118E-16,-3.19281878227874E-16,
1.));
#974=DIRECTION('ref_axis',(1.,4.09394740330527E-16,4.12180485682118E-16));
#975=DIRECTION('',(-4.09394740330527E-16,1.,3.19281878227874E-16));
#976=DIRECTION('',(-1.,-4.09394740330527E-16,-4.12180485682118E-16));
#977=DIRECTION('',(4.09394740330527E-16,-1.,-3.19281878227874E-16));
#978=DIRECTION('center_axis',(4.12180485682118E-16,3.19281878227874E-16,
-1.));
#979=DIRECTION('ref_axis',(-1.,-4.09394740330527E-16,-4.12180485682118E-16));
#980=DIRECTION('',(-4.09394740330527E-16,1.,3.19281878227874E-16));
#981=DIRECTION('',(-1.,-4.09394740330527E-16,-4.12180485682118E-16));
#982=DIRECTION('',(4.09394740330527E-16,-1.,-3.19281878227874E-16));
#983=DIRECTION('center_axis',(4.12180485682118E-16,3.19281878227874E-16,
-1.));
#984=DIRECTION('ref_axis',(-1.,-4.09394740330527E-16,-4.12180485682118E-16));
#985=DIRECTION('',(-4.09394740330527E-16,1.,3.19281878227874E-16));
#986=DIRECTION('',(-1.,-4.09394740330527E-16,-4.12180485682118E-16));
#987=DIRECTION('',(4.09394740330527E-16,-1.,-3.19281878227874E-16));
#988=DIRECTION('',(1.,4.09394740330527E-16,4.12180485682118E-16));
#989=DIRECTION('',(-4.09394740330527E-16,1.,3.19281878227874E-16));
#990=DIRECTION('center_axis',(4.12180485682118E-16,3.19281878227874E-16,
-1.));
#991=DIRECTION('ref_axis',(1.,4.09394740330527E-16,4.12180485682118E-16));
#992=DIRECTION('',(4.09394740330527E-16,-1.,-3.19281878227874E-16));
#993=DIRECTION('',(1.,4.09394740330527E-16,4.12180485682118E-16));
#994=DIRECTION('',(-4.09394740330527E-16,1.,3.19281878227874E-16));
#995=DIRECTION('center_axis',(4.12180485682118E-16,3.19281878227874E-16,
-1.));
#996=DIRECTION('ref_axis',(1.,4.09394740330527E-16,4.12180485682118E-16));
#997=DIRECTION('',(4.09394740330527E-16,-1.,-3.19281878227874E-16));
#998=DIRECTION('',(1.,4.09394740330527E-16,4.12180485682118E-16));
#999=DIRECTION('',(-4.09394740330527E-16,1.,3.19281878227874E-16));
#1000=DIRECTION('center_axis',(4.12180485682118E-16,3.19281878227874E-16,
-1.));
#1001=DIRECTION('ref_axis',(1.,4.09394740330527E-16,4.12180485682118E-16));
#1002=DIRECTION('',(4.09394740330527E-16,-1.,-3.19281878227874E-16));
#1003=DIRECTION('',(1.,4.09394740330527E-16,4.12180485682118E-16));
#1004=DIRECTION('',(-4.09394740330527E-16,1.,3.19281878227874E-16));
#1005=DIRECTION('',(-1.,-4.09394740330527E-16,-4.12180485682118E-16));
#1006=DIRECTION('',(4.09394740330527E-16,-1.,-3.19281878227874E-16));
#1007=DIRECTION('center_axis',(4.12180485682118E-16,3.19281878227874E-16,
-1.));
#1008=DIRECTION('ref_axis',(-1.,-4.09394740330527E-16,-4.12180485682118E-16));
#1009=DIRECTION('center_axis',(4.12180485682118E-16,3.19281878227874E-16,
-1.));
#1010=DIRECTION('ref_axis',(-1.,1.31601759637464E-31,-4.12180485682118E-16));
#1011=DIRECTION('center_axis',(4.12180485682118E-16,3.19281878227874E-16,
-1.));
#1012=DIRECTION('ref_axis',(-1.,1.31601759637464E-31,-4.12180485682118E-16));
#1013=DIRECTION('center_axis',(4.12180485682118E-16,3.19281878227874E-16,
-1.));
#1014=DIRECTION('ref_axis',(-1.,1.31601759637464E-31,-4.12180485682118E-16));
#1015=DIRECTION('center_axis',(4.12180485682118E-16,3.19281878227874E-16,
-1.));
#1016=DIRECTION('ref_axis',(-1.,1.31601759637464E-31,-4.12180485682118E-16));
#1017=DIRECTION('center_axis',(4.12180485682118E-16,3.19281878227874E-16,
-1.));
#1018=DIRECTION('ref_axis',(-1.,1.31601759637464E-31,-4.12180485682118E-16));
#1019=DIRECTION('center_axis',(4.12180485682118E-16,3.19281878227874E-16,
-1.));
#1020=DIRECTION('ref_axis',(-1.,1.31601759637464E-31,-4.12180485682118E-16));
#1021=DIRECTION('center_axis',(4.12180485682118E-16,3.19281878227874E-16,
-1.));
#1022=DIRECTION('ref_axis',(-1.,1.31601759637464E-31,-4.12180485682118E-16));
#1023=DIRECTION('center_axis',(4.12180485682118E-16,3.19281878227874E-16,
-1.));
#1024=DIRECTION('ref_axis',(-1.,1.31601759637464E-31,-4.12180485682118E-16));
#1025=DIRECTION('center_axis',(4.12180485682118E-16,3.19281878227874E-16,
-1.));
#1026=DIRECTION('ref_axis',(-1.,1.31601759637464E-31,-4.12180485682118E-16));
#1027=DIRECTION('center_axis',(4.12180485682118E-16,3.19281878227874E-16,
-1.));
#1028=DIRECTION('ref_axis',(-1.,1.31601759637464E-31,-4.12180485682118E-16));
#1029=DIRECTION('center_axis',(1.,4.09394740330527E-16,4.12180485682118E-16));
#1030=DIRECTION('ref_axis',(-4.09394740330527E-16,1.,3.19281878227874E-16));
#1031=DIRECTION('',(-4.12180485682118E-16,-3.19281878227874E-16,1.));
#1032=DIRECTION('',(-4.12180485682118E-16,-3.19281878227874E-16,1.));
#1033=DIRECTION('center_axis',(0.,0.,-1.));
#1034=DIRECTION('ref_axis',(-1.,0.,0.));
#1035=DIRECTION('',(0.,0.,-1.));
#1036=DIRECTION('center_axis',(0.,0.,-1.));
#1037=DIRECTION('ref_axis',(-1.,0.,0.));
#1038=DIRECTION('',(0.,0.,-1.));
#1039=DIRECTION('center_axis',(0.,0.,-1.));
#1040=DIRECTION('ref_axis',(-1.,0.,0.));
#1041=DIRECTION('',(0.,0.,-1.));
#1042=DIRECTION('center_axis',(0.,0.,-1.));
#1043=DIRECTION('ref_axis',(-1.,0.,0.));
#1044=DIRECTION('',(0.,0.,-1.));
#1045=DIRECTION('center_axis',(0.,0.,-1.));
#1046=DIRECTION('ref_axis',(-1.,0.,0.));
#1047=DIRECTION('',(0.,0.,-1.));
#1048=DIRECTION('center_axis',(0.,0.,-1.));
#1049=DIRECTION('ref_axis',(-1.,0.,0.));
#1050=DIRECTION('',(0.,0.,-1.));
#1051=DIRECTION('center_axis',(0.,0.,-1.));
#1052=DIRECTION('ref_axis',(-1.,0.,0.));
#1053=DIRECTION('',(0.,0.,-1.));
#1054=DIRECTION('center_axis',(0.,0.,-1.));
#1055=DIRECTION('ref_axis',(-1.,0.,0.));
#1056=DIRECTION('',(0.,0.,-1.));
#1057=DIRECTION('center_axis',(0.,0.,-1.));
#1058=DIRECTION('ref_axis',(-1.,0.,0.));
#1059=DIRECTION('',(0.,0.,-1.));
#1060=DIRECTION('center_axis',(0.,0.,-1.));
#1061=DIRECTION('ref_axis',(-1.,0.,0.));
#1062=DIRECTION('',(0.,0.,-1.));
#1063=DIRECTION('center_axis',(-4.09394740330527E-16,1.,3.19281878227874E-16));
#1064=DIRECTION('ref_axis',(-1.,-4.09394740330527E-16,-4.12180485682118E-16));
#1065=DIRECTION('',(-4.12180485682118E-16,-3.19281878227874E-16,1.));
#1066=DIRECTION('',(-4.12180485682118E-16,-3.19281878227874E-16,1.));
#1067=DIRECTION('center_axis',(1.,4.09394740330527E-16,4.12180485682118E-16));
#1068=DIRECTION('ref_axis',(-4.09394740330527E-16,1.,3.19281878227874E-16));
#1069=DIRECTION('',(-4.12180485682118E-16,-3.19281878227874E-16,1.));
#1070=DIRECTION('center_axis',(-4.12180485682118E-16,-3.19281878227874E-16,
1.));
#1071=DIRECTION('ref_axis',(-1.,-4.09394740330527E-16,-4.12180485682118E-16));
#1072=DIRECTION('',(-4.12180485682118E-16,-3.19281878227874E-16,1.));
#1073=DIRECTION('center_axis',(-1.,-4.09394740330527E-16,-4.12180485682118E-16));
#1074=DIRECTION('ref_axis',(4.09394740330527E-16,-1.,-3.19281878227874E-16));
#1075=DIRECTION('',(-4.12180485682118E-16,-3.19281878227874E-16,1.));
#1076=DIRECTION('center_axis',(-4.09394740330527E-16,1.,3.19281878227874E-16));
#1077=DIRECTION('ref_axis',(-1.,-4.09394740330527E-16,-4.12180485682118E-16));
#1078=DIRECTION('',(-4.12180485682118E-16,-3.19281878227874E-16,1.));
#1079=DIRECTION('center_axis',(1.,4.09394740330527E-16,4.12180485682118E-16));
#1080=DIRECTION('ref_axis',(-4.09394740330527E-16,1.,3.19281878227874E-16));
#1081=DIRECTION('',(-4.12180485682118E-16,-3.19281878227874E-16,1.));
#1082=DIRECTION('center_axis',(-4.12180485682118E-16,-3.19281878227874E-16,
1.));
#1083=DIRECTION('ref_axis',(-1.,-4.09394740330527E-16,-4.12180485682118E-16));
#1084=DIRECTION('',(-4.12180485682118E-16,-3.19281878227874E-16,1.));
#1085=DIRECTION('center_axis',(-1.,-4.09394740330527E-16,-4.12180485682118E-16));
#1086=DIRECTION('ref_axis',(4.09394740330527E-16,-1.,-3.19281878227874E-16));
#1087=DIRECTION('',(-4.12180485682118E-16,-3.19281878227874E-16,1.));
#1088=DIRECTION('center_axis',(-4.09394740330527E-16,1.,3.19281878227874E-16));
#1089=DIRECTION('ref_axis',(-1.,-4.09394740330527E-16,-4.12180485682118E-16));
#1090=DIRECTION('center_axis',(-4.12180485682118E-16,-3.19281878227874E-16,
1.));
#1091=DIRECTION('ref_axis',(-1.,-4.09394740330527E-16,-4.12180485682118E-16));
#1092=DIRECTION('',(-4.12180485682118E-16,-3.19281878227874E-16,1.));
#1093=DIRECTION('center_axis',(-1.,-4.09394740330527E-16,-4.12180485682118E-16));
#1094=DIRECTION('ref_axis',(4.09394740330527E-16,-1.,-3.19281878227874E-16));
#1095=DIRECTION('',(-4.12180485682118E-16,-3.19281878227874E-16,1.));
#1096=DIRECTION('center_axis',(-4.09394740330527E-16,1.,3.19281878227874E-16));
#1097=DIRECTION('ref_axis',(-1.,-4.09394740330527E-16,-4.12180485682118E-16));
#1098=DIRECTION('',(-4.12180485682118E-16,-3.19281878227874E-16,1.));
#1099=DIRECTION('center_axis',(1.,4.09394740330527E-16,4.12180485682118E-16));
#1100=DIRECTION('ref_axis',(-4.09394740330527E-16,1.,3.19281878227874E-16));
#1101=DIRECTION('',(-4.12180485682118E-16,-3.19281878227874E-16,1.));
#1102=DIRECTION('center_axis',(4.09394740330527E-16,-1.,-3.19281878227874E-16));
#1103=DIRECTION('ref_axis',(1.,4.09394740330527E-16,4.12180485682118E-16));
#1104=DIRECTION('',(-4.12180485682118E-16,-3.19281878227874E-16,1.));
#1105=DIRECTION('center_axis',(-1.,-4.09394740330527E-16,-4.12180485682118E-16));
#1106=DIRECTION('ref_axis',(4.09394740330527E-16,-1.,-3.19281878227874E-16));
#1107=DIRECTION('',(-4.12180485682118E-16,-3.19281878227874E-16,1.));
#1108=DIRECTION('center_axis',(-4.12180485682118E-16,-3.19281878227874E-16,
1.));
#1109=DIRECTION('ref_axis',(1.,4.09394740330527E-16,4.12180485682118E-16));
#1110=DIRECTION('',(-4.12180485682118E-16,-3.19281878227874E-16,1.));
#1111=DIRECTION('center_axis',(1.,4.09394740330527E-16,4.12180485682118E-16));
#1112=DIRECTION('ref_axis',(-4.09394740330527E-16,1.,3.19281878227874E-16));
#1113=DIRECTION('',(-4.12180485682118E-16,-3.19281878227874E-16,1.));
#1114=DIRECTION('center_axis',(4.09394740330527E-16,-1.,-3.19281878227874E-16));
#1115=DIRECTION('ref_axis',(1.,4.09394740330527E-16,4.12180485682118E-16));
#1116=DIRECTION('',(-4.12180485682118E-16,-3.19281878227874E-16,1.));
#1117=DIRECTION('center_axis',(-1.,-4.09394740330527E-16,-4.12180485682118E-16));
#1118=DIRECTION('ref_axis',(4.09394740330527E-16,-1.,-3.19281878227874E-16));
#1119=DIRECTION('',(-4.12180485682118E-16,-3.19281878227874E-16,1.));
#1120=DIRECTION('center_axis',(-4.12180485682118E-16,-3.19281878227874E-16,
1.));
#1121=DIRECTION('ref_axis',(1.,4.09394740330527E-16,4.12180485682118E-16));
#1122=DIRECTION('',(-4.12180485682118E-16,-3.19281878227874E-16,1.));
#1123=DIRECTION('center_axis',(1.,4.09394740330527E-16,4.12180485682118E-16));
#1124=DIRECTION('ref_axis',(-4.09394740330527E-16,1.,3.19281878227874E-16));
#1125=DIRECTION('',(-4.12180485682118E-16,-3.19281878227874E-16,1.));
#1126=DIRECTION('center_axis',(4.09394740330527E-16,-1.,-3.19281878227874E-16));
#1127=DIRECTION('ref_axis',(1.,4.09394740330527E-16,4.12180485682118E-16));
#1128=DIRECTION('',(-4.12180485682118E-16,-3.19281878227874E-16,1.));
#1129=DIRECTION('center_axis',(-1.,-4.09394740330527E-16,-4.12180485682118E-16));
#1130=DIRECTION('ref_axis',(4.09394740330527E-16,-1.,-3.19281878227874E-16));
#1131=DIRECTION('',(-4.12180485682118E-16,-3.19281878227874E-16,1.));
#1132=DIRECTION('center_axis',(-4.12180485682118E-16,-3.19281878227874E-16,
1.));
#1133=DIRECTION('ref_axis',(1.,4.09394740330527E-16,4.12180485682118E-16));
#1134=DIRECTION('',(-4.12180485682118E-16,-3.19281878227874E-16,1.));
#1135=DIRECTION('center_axis',(1.,4.09394740330527E-16,4.12180485682118E-16));
#1136=DIRECTION('ref_axis',(-4.09394740330527E-16,1.,3.19281878227874E-16));
#1137=DIRECTION('',(-4.12180485682118E-16,-3.19281878227874E-16,1.));
#1138=DIRECTION('center_axis',(4.09394740330527E-16,-1.,-3.19281878227874E-16));
#1139=DIRECTION('ref_axis',(1.,4.09394740330527E-16,4.12180485682118E-16));
#1140=DIRECTION('',(-4.12180485682118E-16,-3.19281878227874E-16,1.));
#1141=DIRECTION('center_axis',(-1.,-4.09394740330527E-16,-4.12180485682118E-16));
#1142=DIRECTION('ref_axis',(4.09394740330527E-16,-1.,-3.19281878227874E-16));
#1143=CARTESIAN_POINT('',(0.,0.,0.));
#1144=CARTESIAN_POINT('Origin',(389.,199.683948247891,10.0000000000004));
#1145=CARTESIAN_POINT('',(466.750000000001,287.683948247891,10.0000000000005));
#1146=CARTESIAN_POINT('',(466.750000000001,278.526842522188,10.0000000000005));
#1147=CARTESIAN_POINT('',(466.750000000001,287.683948247891,10.0000000000005));
#1148=CARTESIAN_POINT('',(471.249999999999,278.526842522188,10.0000000000005));
#1149=CARTESIAN_POINT('Origin',(469.,278.526842522188,10.0000000000005));
#1150=CARTESIAN_POINT('',(471.249999999999,287.683948247891,10.0000000000005));
#1151=CARTESIAN_POINT('',(471.249999999999,278.526842522188,10.0000000000005));
#1152=CARTESIAN_POINT('',(499.,287.683948247891,10.0000000000005));
#1153=CARTESIAN_POINT('',(279.,287.683948247891,10.0000000000004));
#1154=CARTESIAN_POINT('',(499.,111.683948247891,10.0000000000004));
#1155=CARTESIAN_POINT('',(499.,106.683948247891,10.0000000000004));
#1156=CARTESIAN_POINT('',(471.249999999999,111.683948247891,10.0000000000004));
#1157=CARTESIAN_POINT('',(279.,111.683948247891,10.0000000000003));
#1158=CARTESIAN_POINT('',(471.249999999999,120.841053973594,10.0000000000004));
#1159=CARTESIAN_POINT('',(471.249999999999,120.841053973594,10.0000000000004));
#1160=CARTESIAN_POINT('',(466.750000000001,120.841053973594,10.0000000000004));
#1161=CARTESIAN_POINT('Origin',(469.,120.841053973594,10.0000000000004));
#1162=CARTESIAN_POINT('',(466.750000000001,111.683948247891,10.0000000000004));
#1163=CARTESIAN_POINT('',(466.750000000001,111.683948247891,10.0000000000004));
#1164=CARTESIAN_POINT('',(391.249999999999,111.683948247891,10.0000000000004));
#1165=CARTESIAN_POINT('',(279.,111.683948247891,10.0000000000003));
#1166=CARTESIAN_POINT('',(391.249999999999,120.841053973594,10.0000000000004));
#1167=CARTESIAN_POINT('',(391.249999999999,120.841053973594,10.0000000000004));
#1168=CARTESIAN_POINT('',(386.750000000001,120.841053973594,10.0000000000004));
#1169=CARTESIAN_POINT('Origin',(389.,120.841053973594,10.0000000000004));
#1170=CARTESIAN_POINT('',(386.750000000001,111.683948247891,10.0000000000004));
#1171=CARTESIAN_POINT('',(386.750000000001,111.683948247891,10.0000000000004));
#1172=CARTESIAN_POINT('',(311.249999999999,111.683948247891,10.0000000000003));
#1173=CARTESIAN_POINT('',(279.,111.683948247891,10.0000000000003));
#1174=CARTESIAN_POINT('',(311.249999999999,120.841053973594,10.0000000000003));
#1175=CARTESIAN_POINT('',(311.249999999999,120.841053973594,10.0000000000003));
#1176=CARTESIAN_POINT('',(306.750000000001,120.841053973594,10.0000000000003));
#1177=CARTESIAN_POINT('Origin',(309.,120.841053973594,10.0000000000003));
#1178=CARTESIAN_POINT('',(306.750000000001,111.683948247891,10.0000000000003));
#1179=CARTESIAN_POINT('',(306.750000000001,111.683948247891,10.0000000000003));
#1180=CARTESIAN_POINT('',(279.,111.683948247891,10.0000000000003));
#1181=CARTESIAN_POINT('',(279.,111.683948247891,10.0000000000003));
#1182=CARTESIAN_POINT('',(279.,287.683948247891,10.0000000000004));
#1183=CARTESIAN_POINT('',(279.,292.683948247891,10.0000000000004));
#1184=CARTESIAN_POINT('',(306.750000000001,287.683948247891,10.0000000000004));
#1185=CARTESIAN_POINT('',(279.,287.683948247891,10.0000000000004));
#1186=CARTESIAN_POINT('',(306.750000000001,278.526842522188,10.0000000000004));
#1187=CARTESIAN_POINT('',(306.750000000001,287.683948247891,10.0000000000004));
#1188=CARTESIAN_POINT('',(311.249999999999,278.526842522188,10.0000000000004));
#1189=CARTESIAN_POINT('Origin',(309.,278.526842522188,10.0000000000004));
#1190=CARTESIAN_POINT('',(311.249999999999,287.683948247891,10.0000000000004));
#1191=CARTESIAN_POINT('',(311.249999999999,278.526842522188,10.0000000000004));
#1192=CARTESIAN_POINT('',(386.750000000001,287.683948247891,10.0000000000004));
#1193=CARTESIAN_POINT('',(279.,287.683948247891,10.0000000000004));
#1194=CARTESIAN_POINT('',(386.750000000001,278.526842522188,10.0000000000004));
#1195=CARTESIAN_POINT('',(386.750000000001,287.683948247891,10.0000000000004));
#1196=CARTESIAN_POINT('',(391.249999999999,278.526842522188,10.0000000000004));
#1197=CARTESIAN_POINT('Origin',(389.,278.526842522188,10.0000000000004));
#1198=CARTESIAN_POINT('',(391.249999999999,287.683948247891,10.0000000000004));
#1199=CARTESIAN_POINT('',(391.249999999999,278.526842522188,10.0000000000004));
#1200=CARTESIAN_POINT('',(279.,287.683948247891,10.0000000000004));
#1201=CARTESIAN_POINT('',(306.166,143.683898247892,10.0000000000004));
#1202=CARTESIAN_POINT('Origin',(304.5,143.683898247892,10.0000000000004));
#1203=CARTESIAN_POINT('',(476.166,143.683898247892,10.0000000000004));
#1204=CARTESIAN_POINT('Origin',(474.5,143.683898247892,10.0000000000004));
#1205=CARTESIAN_POINT('',(348.666,255.683898247892,10.0000000000004));
#1206=CARTESIAN_POINT('Origin',(347.,255.683898247892,10.0000000000004));
#1207=CARTESIAN_POINT('',(391.166,255.683898247892,10.0000000000004));
#1208=CARTESIAN_POINT('Origin',(389.5,255.683898247892,10.0000000000004));
#1209=CARTESIAN_POINT('',(433.666,143.683898247892,10.0000000000004));
#1210=CARTESIAN_POINT('Origin',(432.,143.683898247892,10.0000000000004));
#1211=CARTESIAN_POINT('',(348.666,143.683898247892,10.0000000000004));
#1212=CARTESIAN_POINT('Origin',(347.,143.683898247892,10.0000000000004));
#1213=CARTESIAN_POINT('',(476.166,255.683898247892,10.0000000000004));
#1214=CARTESIAN_POINT('Origin',(474.5,255.683898247892,10.0000000000004));
#1215=CARTESIAN_POINT('',(306.166,255.683898247892,10.0000000000004));
#1216=CARTESIAN_POINT('Origin',(304.5,255.683898247892,10.0000000000004));
#1217=CARTESIAN_POINT('',(433.666,255.683898247892,10.0000000000004));
#1218=CARTESIAN_POINT('Origin',(432.,255.683898247892,10.0000000000004));
#1219=CARTESIAN_POINT('',(391.166,143.683898247892,10.0000000000004));
#1220=CARTESIAN_POINT('Origin',(389.5,143.683898247892,10.0000000000004));
#1221=CARTESIAN_POINT('Origin',(389.,199.683948247891,13.1750000000004));
#1222=CARTESIAN_POINT('',(466.750000000001,278.526842522188,13.1750000000005));
#1223=CARTESIAN_POINT('',(466.750000000001,287.683948247891,13.1750000000005));
#1224=CARTESIAN_POINT('',(466.750000000001,287.683948247891,13.1750000000005));
#1225=CARTESIAN_POINT('',(391.249999999999,287.683948247891,13.1750000000004));
#1226=CARTESIAN_POINT('',(279.,287.683948247891,13.1750000000004));
#1227=CARTESIAN_POINT('',(391.249999999999,278.526842522188,13.1750000000004));
#1228=CARTESIAN_POINT('',(391.249999999999,278.526842522188,13.1750000000004));
#1229=CARTESIAN_POINT('',(386.750000000001,278.526842522188,13.1750000000004));
#1230=CARTESIAN_POINT('Origin',(389.,278.526842522188,13.1750000000004));
#1231=CARTESIAN_POINT('',(386.750000000001,287.683948247891,13.1750000000004));
#1232=CARTESIAN_POINT('',(386.750000000001,287.683948247891,13.1750000000004));
#1233=CARTESIAN_POINT('',(311.249999999999,287.683948247891,13.1750000000004));
#1234=CARTESIAN_POINT('',(279.,287.683948247891,13.1750000000004));
#1235=CARTESIAN_POINT('',(311.249999999999,278.526842522188,13.1750000000004));
#1236=CARTESIAN_POINT('',(311.249999999999,278.526842522188,13.1750000000004));
#1237=CARTESIAN_POINT('',(306.750000000001,278.526842522188,13.1750000000004));
#1238=CARTESIAN_POINT('Origin',(309.,278.526842522188,13.1750000000004));
#1239=CARTESIAN_POINT('',(306.750000000001,287.683948247891,13.1750000000004));
#1240=CARTESIAN_POINT('',(306.750000000001,287.683948247891,13.1750000000004));
#1241=CARTESIAN_POINT('',(279.,287.683948247891,13.1750000000004));
#1242=CARTESIAN_POINT('',(279.,287.683948247891,13.1750000000004));
#1243=CARTESIAN_POINT('',(279.,111.683948247891,13.1750000000003));
#1244=CARTESIAN_POINT('',(279.,292.683948247891,13.1750000000004));
#1245=CARTESIAN_POINT('',(306.750000000001,111.683948247891,13.1750000000003));
#1246=CARTESIAN_POINT('',(279.,111.683948247891,13.1750000000003));
#1247=CARTESIAN_POINT('',(306.750000000001,120.841053973594,13.1750000000003));
#1248=CARTESIAN_POINT('',(306.750000000001,111.683948247891,13.1750000000003));
#1249=CARTESIAN_POINT('',(311.249999999999,120.841053973594,13.1750000000003));
#1250=CARTESIAN_POINT('Origin',(309.,120.841053973594,13.1750000000003));
#1251=CARTESIAN_POINT('',(311.249999999999,111.683948247891,13.1750000000003));
#1252=CARTESIAN_POINT('',(311.249999999999,120.841053973594,13.1750000000003));
#1253=CARTESIAN_POINT('',(386.750000000001,111.683948247891,13.1750000000004));
#1254=CARTESIAN_POINT('',(279.,111.683948247891,13.1750000000003));
#1255=CARTESIAN_POINT('',(386.750000000001,120.841053973594,13.1750000000004));
#1256=CARTESIAN_POINT('',(386.750000000001,111.683948247891,13.1750000000004));
#1257=CARTESIAN_POINT('',(391.249999999999,120.841053973594,13.1750000000004));
#1258=CARTESIAN_POINT('Origin',(389.,120.841053973594,13.1750000000004));
#1259=CARTESIAN_POINT('',(391.249999999999,111.683948247891,13.1750000000004));
#1260=CARTESIAN_POINT('',(391.249999999999,120.841053973594,13.1750000000004));
#1261=CARTESIAN_POINT('',(466.750000000001,111.683948247891,13.1750000000004));
#1262=CARTESIAN_POINT('',(279.,111.683948247891,13.1750000000003));
#1263=CARTESIAN_POINT('',(466.750000000001,120.841053973594,13.1750000000004));
#1264=CARTESIAN_POINT('',(466.750000000001,111.683948247891,13.1750000000004));
#1265=CARTESIAN_POINT('',(471.249999999999,120.841053973594,13.1750000000004));
#1266=CARTESIAN_POINT('Origin',(469.,120.841053973594,13.1750000000004));
#1267=CARTESIAN_POINT('',(471.249999999999,111.683948247891,13.1750000000004));
#1268=CARTESIAN_POINT('',(471.249999999999,120.841053973594,13.1750000000004));
#1269=CARTESIAN_POINT('',(499.,111.683948247891,13.1750000000004));
#1270=CARTESIAN_POINT('',(279.,111.683948247891,13.1750000000003));
#1271=CARTESIAN_POINT('',(499.,287.683948247891,13.1750000000005));
#1272=CARTESIAN_POINT('',(499.,106.683948247891,13.1750000000004));
#1273=CARTESIAN_POINT('',(471.249999999999,287.683948247891,13.1750000000005));
#1274=CARTESIAN_POINT('',(279.,287.683948247891,13.1750000000004));
#1275=CARTESIAN_POINT('',(471.249999999999,278.526842522188,13.1750000000005));
#1276=CARTESIAN_POINT('',(471.249999999999,278.526842522188,13.1750000000005));
#1277=CARTESIAN_POINT('Origin',(469.,278.526842522188,13.1750000000005));
#1278=CARTESIAN_POINT('',(306.166,143.683898247892,13.1750000000004));
#1279=CARTESIAN_POINT('Origin',(304.5,143.683898247892,13.1750000000004));
#1280=CARTESIAN_POINT('',(476.166,143.683898247892,13.1750000000004));
#1281=CARTESIAN_POINT('Origin',(474.5,143.683898247892,13.1750000000004));
#1282=CARTESIAN_POINT('',(348.666,255.683898247892,13.1750000000004));
#1283=CARTESIAN_POINT('Origin',(347.,255.683898247892,13.1750000000004));
#1284=CARTESIAN_POINT('',(391.166,255.683898247892,13.1750000000004));
#1285=CARTESIAN_POINT('Origin',(389.5,255.683898247892,13.1750000000004));
#1286=CARTESIAN_POINT('',(433.666,143.683898247892,13.1750000000004));
#1287=CARTESIAN_POINT('Origin',(432.,143.683898247892,13.1750000000004));
#1288=CARTESIAN_POINT('',(348.666,143.683898247892,13.1750000000004));
#1289=CARTESIAN_POINT('Origin',(347.,143.683898247892,13.1750000000004));
#1290=CARTESIAN_POINT('',(476.166,255.683898247892,13.1750000000004));
#1291=CARTESIAN_POINT('Origin',(474.5,255.683898247892,13.1750000000004));
#1292=CARTESIAN_POINT('',(306.166,255.683898247892,13.1750000000004));
#1293=CARTESIAN_POINT('Origin',(304.5,255.683898247892,13.1750000000004));
#1294=CARTESIAN_POINT('',(433.666,255.683898247892,13.1750000000004));
#1295=CARTESIAN_POINT('Origin',(432.,255.683898247892,13.1750000000004));
#1296=CARTESIAN_POINT('',(391.166,143.683898247892,13.1750000000004));
#1297=CARTESIAN_POINT('Origin',(389.5,143.683898247892,13.1750000000004));
#1298=CARTESIAN_POINT('Origin',(466.750000000001,278.526842522188,10.0000000000005));
#1299=CARTESIAN_POINT('',(466.750000000001,278.526842522188,10.0000000000005));
#1300=CARTESIAN_POINT('',(466.750000000001,287.683948247891,10.0000000000005));
#1301=CARTESIAN_POINT('Origin',(389.5,143.683898247892,13.1750000000004));
#1302=CARTESIAN_POINT('',(391.166,143.683898247892,13.1750000000004));
#1303=CARTESIAN_POINT('Origin',(432.,255.683898247892,13.1750000000004));
#1304=CARTESIAN_POINT('',(433.666,255.683898247892,13.1750000000004));
#1305=CARTESIAN_POINT('Origin',(304.5,255.683898247892,13.1750000000004));
#1306=CARTESIAN_POINT('',(306.166,255.683898247892,13.1750000000004));
#1307=CARTESIAN_POINT('Origin',(474.5,255.683898247892,13.1750000000004));
#1308=CARTESIAN_POINT('',(476.166,255.683898247892,13.1750000000004));
#1309=CARTESIAN_POINT('Origin',(347.,143.683898247892,13.1750000000004));
#1310=CARTESIAN_POINT('',(348.666,143.683898247892,13.1750000000004));
#1311=CARTESIAN_POINT('Origin',(432.,143.683898247892,13.1750000000004));
#1312=CARTESIAN_POINT('',(433.666,143.683898247892,13.1750000000004));
#1313=CARTESIAN_POINT('Origin',(389.5,255.683898247892,13.1750000000004));
#1314=CARTESIAN_POINT('',(391.166,255.683898247892,13.1750000000004));
#1315=CARTESIAN_POINT('Origin',(347.,255.683898247892,13.1750000000004));
#1316=CARTESIAN_POINT('',(348.666,255.683898247892,13.1750000000004));
#1317=CARTESIAN_POINT('Origin',(474.5,143.683898247892,13.1750000000004));
#1318=CARTESIAN_POINT('',(476.166,143.683898247892,13.1750000000004));
#1319=CARTESIAN_POINT('Origin',(304.5,143.683898247892,13.1750000000003));
#1320=CARTESIAN_POINT('',(306.166,143.683898247892,13.1750000000003));
#1321=CARTESIAN_POINT('Origin',(306.750000000001,287.683948247891,10.0000000000004));
#1322=CARTESIAN_POINT('',(279.,287.683948247891,10.0000000000004));
#1323=CARTESIAN_POINT('',(306.750000000001,287.683948247891,10.0000000000004));
#1324=CARTESIAN_POINT('Origin',(306.750000000001,278.526842522188,10.0000000000004));
#1325=CARTESIAN_POINT('',(306.750000000001,278.526842522188,10.0000000000004));
#1326=CARTESIAN_POINT('Origin',(309.,278.526842522188,10.0000000000004));
#1327=CARTESIAN_POINT('',(311.249999999999,278.526842522188,10.0000000000004));
#1328=CARTESIAN_POINT('Origin',(311.249999999999,287.683948247891,10.0000000000004));
#1329=CARTESIAN_POINT('',(311.249999999999,287.683948247891,10.0000000000004));
#1330=CARTESIAN_POINT('Origin',(386.750000000001,287.683948247891,10.0000000000004));
#1331=CARTESIAN_POINT('',(386.750000000001,287.683948247891,10.0000000000004));
#1332=CARTESIAN_POINT('Origin',(386.750000000001,278.526842522188,10.0000000000004));
#1333=CARTESIAN_POINT('',(386.750000000001,278.526842522188,10.0000000000004));
#1334=CARTESIAN_POINT('Origin',(389.,278.526842522188,10.0000000000004));
#1335=CARTESIAN_POINT('',(391.249999999999,278.526842522188,10.0000000000004));
#1336=CARTESIAN_POINT('Origin',(391.249999999999,287.683948247891,10.0000000000004));
#1337=CARTESIAN_POINT('',(391.249999999999,287.683948247891,10.0000000000004));
#1338=CARTESIAN_POINT('Origin',(466.750000000001,287.683948247891,10.0000000000005));
#1339=CARTESIAN_POINT('Origin',(469.,278.526842522188,10.0000000000005));
#1340=CARTESIAN_POINT('',(471.249999999999,278.526842522188,10.0000000000005));
#1341=CARTESIAN_POINT('Origin',(471.249999999999,287.683948247891,10.0000000000005));
#1342=CARTESIAN_POINT('',(471.249999999999,287.683948247891,10.0000000000005));
#1343=CARTESIAN_POINT('Origin',(499.,287.683948247891,10.0000000000005));
#1344=CARTESIAN_POINT('',(499.,287.683948247891,10.0000000000005));
#1345=CARTESIAN_POINT('Origin',(499.,111.683948247891,10.0000000000004));
#1346=CARTESIAN_POINT('',(499.,111.683948247891,10.0000000000004));
#1347=CARTESIAN_POINT('Origin',(471.249999999999,111.683948247891,10.0000000000004));
#1348=CARTESIAN_POINT('',(471.249999999999,111.683948247891,10.0000000000004));
#1349=CARTESIAN_POINT('Origin',(471.249999999999,120.841053973594,10.0000000000004));
#1350=CARTESIAN_POINT('',(471.249999999999,120.841053973594,10.0000000000004));
#1351=CARTESIAN_POINT('Origin',(469.,120.841053973594,10.0000000000004));
#1352=CARTESIAN_POINT('',(466.750000000001,120.841053973594,10.0000000000004));
#1353=CARTESIAN_POINT('Origin',(466.750000000001,111.683948247891,10.0000000000004));
#1354=CARTESIAN_POINT('',(466.750000000001,111.683948247891,10.0000000000004));
#1355=CARTESIAN_POINT('Origin',(391.249999999999,111.683948247891,10.0000000000004));
#1356=CARTESIAN_POINT('',(391.249999999999,111.683948247891,10.0000000000004));
#1357=CARTESIAN_POINT('Origin',(391.249999999999,120.841053973594,10.0000000000004));
#1358=CARTESIAN_POINT('',(391.249999999999,120.841053973594,10.0000000000004));
#1359=CARTESIAN_POINT('Origin',(389.,120.841053973594,10.0000000000004));
#1360=CARTESIAN_POINT('',(386.750000000001,120.841053973594,10.0000000000004));
#1361=CARTESIAN_POINT('Origin',(386.750000000001,111.683948247891,10.0000000000004));
#1362=CARTESIAN_POINT('',(386.750000000001,111.683948247891,10.0000000000004));
#1363=CARTESIAN_POINT('Origin',(311.249999999999,111.683948247891,10.0000000000003));
#1364=CARTESIAN_POINT('',(311.249999999999,111.683948247891,10.0000000000003));
#1365=CARTESIAN_POINT('Origin',(311.249999999999,120.841053973594,10.0000000000003));
#1366=CARTESIAN_POINT('',(311.249999999999,120.841053973594,10.0000000000003));
#1367=CARTESIAN_POINT('Origin',(309.,120.841053973594,10.0000000000003));
#1368=CARTESIAN_POINT('',(306.750000000001,120.841053973594,10.0000000000003));
#1369=CARTESIAN_POINT('Origin',(306.750000000001,111.683948247891,10.0000000000003));
#1370=CARTESIAN_POINT('',(306.750000000001,111.683948247891,10.0000000000003));
#1371=CARTESIAN_POINT('Origin',(279.,111.683948247891,10.0000000000003));
#1372=CARTESIAN_POINT('',(279.,111.683948247891,10.0000000000003));
#1373=CARTESIAN_POINT('Origin',(279.,287.683948247891,10.0000000000004));
#1374=UNCERTAINTY_MEASURE_WITH_UNIT(LENGTH_MEASURE(0.01),#1378,
'DISTANCE_ACCURACY_VALUE',
'Maximum model space distance between geometric entities at asserted c
onnectivities');
#1375=UNCERTAINTY_MEASURE_WITH_UNIT(LENGTH_MEASURE(0.01),#1378,
'DISTANCE_ACCURACY_VALUE',
'Maximum model space distance between geometric entities at asserted c
onnectivities');
#1376=(
GEOMETRIC_REPRESENTATION_CONTEXT(3)
GLOBAL_UNCERTAINTY_ASSIGNED_CONTEXT((#1374))
GLOBAL_UNIT_ASSIGNED_CONTEXT((#1378,#1380,#1381))
REPRESENTATION_CONTEXT('','3D')
);
#1377=(
GEOMETRIC_REPRESENTATION_CONTEXT(3)
GLOBAL_UNCERTAINTY_ASSIGNED_CONTEXT((#1375))
GLOBAL_UNIT_ASSIGNED_CONTEXT((#1378,#1380,#1381))
REPRESENTATION_CONTEXT('','3D')
);
#1378=(
LENGTH_UNIT()
NAMED_UNIT(*)
SI_UNIT(.MILLI.,.METRE.)
);
#1379=(
LENGTH_UNIT()
NAMED_UNIT(*)
SI_UNIT($,.METRE.)
);
#1380=(
NAMED_UNIT(*)
PLANE_ANGLE_UNIT()
SI_UNIT($,.RADIAN.)
);
#1381=(
NAMED_UNIT(*)
SI_UNIT($,.STERADIAN.)
SOLID_ANGLE_UNIT()
);
#1382=SHAPE_DEFINITION_REPRESENTATION(#1383,#1384);
#1383=PRODUCT_DEFINITION_SHAPE('',$,#1386);
#1384=SHAPE_REPRESENTATION('',(#842),#1376);
#1385=PRODUCT_DEFINITION_CONTEXT('part definition',#1390,'design');
#1386=PRODUCT_DEFINITION('control module baseplate',
'control module baseplate',#1387,#1385);
#1387=PRODUCT_DEFINITION_FORMATION('',$,#1392);
#1388=PRODUCT_RELATED_PRODUCT_CATEGORY('control module baseplate',
'control module baseplate',(#1392));
#1389=APPLICATION_PROTOCOL_DEFINITION('international standard',
'automotive_design',2009,#1390);
#1390=APPLICATION_CONTEXT(
'Core Data for Automotive Mechanical Design Process');
#1391=PRODUCT_CONTEXT('part definition',#1390,'mechanical');
#1392=PRODUCT('control module baseplate','control module baseplate',$,(#1391));
#1393=PRESENTATION_STYLE_ASSIGNMENT((#1395));
#1394=PRESENTATION_STYLE_ASSIGNMENT((#1396));
#1395=SURFACE_STYLE_USAGE(.BOTH.,#1397);
#1396=SURFACE_STYLE_USAGE(.BOTH.,#1398);
#1397=SURFACE_SIDE_STYLE('',(#1399));
#1398=SURFACE_SIDE_STYLE('',(#1400));
#1399=SURFACE_STYLE_FILL_AREA(#1401);
#1400=SURFACE_STYLE_FILL_AREA(#1402);
#1401=FILL_AREA_STYLE('Plate',(#1403));
#1402=FILL_AREA_STYLE('Opaque(245,245,246)',(#1404));
#1403=FILL_AREA_STYLE_COLOUR('Plate',#1405);
#1404=FILL_AREA_STYLE_COLOUR('Opaque(245,245,246)',#1406);
#1405=COLOUR_RGB('Plate',0.6,0.6,0.6);
#1406=COLOUR_RGB('Opaque(245,245,246)',0.96078431372549,0.96078431372549,
0.964705882352941);
ENDSEC;
END-ISO-10303-21;
