ISO-10303-21;
HEADER;
/* Generated by software containing ST-Developer
 * from STEP Tools, Inc. (www.steptools.com) 
 */

FILE_DESCRIPTION(
/* description */ (''),
/* implementation_level */ '2;1');

FILE_NAME(
/* name */ 'plate_mount_22mm_coupler_male.step',
/* time_stamp */ '2024-03-06T22:36:29-05:00',
/* author */ (''),
/* organization */ (''),
/* preprocessor_version */ 'ST-DEVELOPER v20',
/* originating_system */ 'Autodesk Translation Framework v12.20.1.177',

/* authorisation */ '');

FILE_SCHEMA (('AUTOMOTIVE_DESIGN { 1 0 10303 214 3 1 1 }'));
ENDSEC;

DATA;
#10=MECHANICAL_DESIGN_GEOMETRIC_PRESENTATION_REPRESENTATION('',(#13),#680);
#11=SHAPE_REPRESENTATION_RELATIONSHIP('SRR','None',#687,#12);
#12=ADVANCED_BREP_SHAPE_REPRESENTATION('',(#14),#679);
#13=STYLED_ITEM('',(#697),#14);
#14=MANIFOLD_SOLID_BREP('Body2',#373);
#15=CONICAL_SURFACE('',#407,14.875,0.785398163397448);
#16=CONICAL_SURFACE('',#416,10.55,0.785398163397448);
#17=CONICAL_SURFACE('',#423,10.675,0.785398163397448);
#18=CONICAL_SURFACE('',#427,10.675,0.785398163397448);
#19=CONICAL_SURFACE('',#433,9.04166666666666,0.785398163397451);
#20=CONICAL_SURFACE('',#439,9.04166666666666,0.785398163397451);
#21=CONICAL_SURFACE('',#440,8.15,0.785398163397448);
#22=LINE('',#593,#39);
#23=LINE('',#597,#40);
#24=LINE('',#601,#41);
#25=LINE('',#608,#42);
#26=LINE('',#611,#43);
#27=LINE('',#616,#44);
#28=LINE('',#625,#45);
#29=LINE('',#630,#46);
#30=LINE('',#634,#47);
#31=LINE('',#641,#48);
#32=LINE('',#650,#49);
#33=LINE('',#656,#50);
#34=LINE('',#662,#51);
#35=LINE('',#665,#52);
#36=LINE('',#670,#53);
#37=LINE('',#673,#54);
#38=LINE('',#676,#55);
#39=VECTOR('',#465,1.5);
#40=VECTOR('',#470,1.5);
#41=VECTOR('',#475,1.5);
#42=VECTOR('',#486,15.875);
#43=VECTOR('',#491,14.875);
#44=VECTOR('',#496,7.1375);
#45=VECTOR('',#509,10.);
#46=VECTOR('',#514,10.55);
#47=VECTOR('',#519,11.);
#48=VECTOR('',#528,10.675);
#49=VECTOR('',#539,10.675);
#50=VECTOR('',#548,11.);
#51=VECTOR('',#555,9.04166666666666);
#52=VECTOR('',#558,8.91666666666666);
#53=VECTOR('',#565,9.04166666666666);
#54=VECTOR('',#568,8.15);
#55=VECTOR('',#573,7.9);
#56=CYLINDRICAL_SURFACE('',#396,1.2645);
#57=CYLINDRICAL_SURFACE('',#398,1.2645);
#58=CYLINDRICAL_SURFACE('',#400,1.2645);
#59=CYLINDRICAL_SURFACE('',#405,15.875);
#60=CYLINDRICAL_SURFACE('',#408,7.1375);
#61=CYLINDRICAL_SURFACE('',#415,10.);
#62=CYLINDRICAL_SURFACE('',#419,10.9);
#63=CYLINDRICAL_SURFACE('',#432,10.9);
#64=CYLINDRICAL_SURFACE('',#436,8.91666666666666);
#65=CYLINDRICAL_SURFACE('',#442,7.5);
#66=FACE_BOUND('',#104,.T.);
#67=FACE_BOUND('',#106,.T.);
#68=FACE_BOUND('',#107,.T.);
#69=FACE_BOUND('',#108,.T.);
#70=FACE_BOUND('',#109,.T.);
#71=FACE_BOUND('',#120,.T.);
#72=FACE_BOUND('',#122,.T.);
#73=FACE_BOUND('',#127,.T.);
#74=FACE_BOUND('',#130,.T.);
#75=FACE_BOUND('',#133,.T.);
#76=FACE_OUTER_BOUND('',#103,.T.);
#77=FACE_OUTER_BOUND('',#105,.T.);
#78=FACE_OUTER_BOUND('',#110,.T.);
#79=FACE_OUTER_BOUND('',#111,.T.);
#80=FACE_OUTER_BOUND('',#112,.T.);
#81=FACE_OUTER_BOUND('',#113,.T.);
#82=FACE_OUTER_BOUND('',#114,.T.);
#83=FACE_OUTER_BOUND('',#115,.T.);
#84=FACE_OUTER_BOUND('',#116,.T.);
#85=FACE_OUTER_BOUND('',#117,.T.);
#86=FACE_OUTER_BOUND('',#118,.T.);
#87=FACE_OUTER_BOUND('',#119,.T.);
#88=FACE_OUTER_BOUND('',#121,.T.);
#89=FACE_OUTER_BOUND('',#123,.T.);
#90=FACE_OUTER_BOUND('',#124,.T.);
#91=FACE_OUTER_BOUND('',#125,.T.);
#92=FACE_OUTER_BOUND('',#126,.T.);
#93=FACE_OUTER_BOUND('',#128,.T.);
#94=FACE_OUTER_BOUND('',#129,.T.);
#95=FACE_OUTER_BOUND('',#131,.T.);
#96=FACE_OUTER_BOUND('',#132,.T.);
#97=FACE_OUTER_BOUND('',#134,.T.);
#98=FACE_OUTER_BOUND('',#135,.T.);
#99=FACE_OUTER_BOUND('',#136,.T.);
#100=FACE_OUTER_BOUND('',#137,.T.);
#101=FACE_OUTER_BOUND('',#138,.T.);
#102=FACE_OUTER_BOUND('',#139,.T.);
#103=EDGE_LOOP('',(#244));
#104=EDGE_LOOP('',(#245));
#105=EDGE_LOOP('',(#246));
#106=EDGE_LOOP('',(#247));
#107=EDGE_LOOP('',(#248));
#108=EDGE_LOOP('',(#249));
#109=EDGE_LOOP('',(#250));
#110=EDGE_LOOP('',(#251,#252,#253,#254));
#111=EDGE_LOOP('',(#255,#256,#257,#258));
#112=EDGE_LOOP('',(#259,#260,#261,#262));
#113=EDGE_LOOP('',(#263));
#114=EDGE_LOOP('',(#264));
#115=EDGE_LOOP('',(#265));
#116=EDGE_LOOP('',(#266,#267,#268,#269));
#117=EDGE_LOOP('',(#270,#271,#272,#273));
#118=EDGE_LOOP('',(#274,#275,#276,#277));
#119=EDGE_LOOP('',(#278));
#120=EDGE_LOOP('',(#279));
#121=EDGE_LOOP('',(#280));
#122=EDGE_LOOP('',(#281));
#123=EDGE_LOOP('',(#282,#283,#284,#285));
#124=EDGE_LOOP('',(#286,#287,#288,#289));
#125=EDGE_LOOP('',(#290,#291,#292,#293));
#126=EDGE_LOOP('',(#294));
#127=EDGE_LOOP('',(#295));
#128=EDGE_LOOP('',(#296,#297,#298,#299));
#129=EDGE_LOOP('',(#300));
#130=EDGE_LOOP('',(#301));
#131=EDGE_LOOP('',(#302,#303,#304,#305));
#132=EDGE_LOOP('',(#306));
#133=EDGE_LOOP('',(#307));
#134=EDGE_LOOP('',(#308,#309,#310,#311));
#135=EDGE_LOOP('',(#312,#313,#314,#315,#316));
#136=EDGE_LOOP('',(#317,#318,#319,#320,#321,#322));
#137=EDGE_LOOP('',(#323,#324,#325,#326,#327));
#138=EDGE_LOOP('',(#328,#329,#330,#331));
#139=EDGE_LOOP('',(#332,#333,#334,#335));
#140=CIRCLE('',#388,13.875);
#141=CIRCLE('',#389,10.9);
#142=CIRCLE('',#391,15.875);
#143=CIRCLE('',#392,10.);
#144=CIRCLE('',#393,1.2645);
#145=CIRCLE('',#394,1.2645);
#146=CIRCLE('',#395,1.2645);
#147=CIRCLE('',#397,1.2645);
#148=CIRCLE('',#399,1.2645);
#149=CIRCLE('',#401,1.2645);
#150=CIRCLE('',#406,15.875);
#151=CIRCLE('',#409,7.1375);
#152=CIRCLE('',#410,7.1375);
#153=CIRCLE('',#412,7.5);
#154=CIRCLE('',#414,10.);
#155=CIRCLE('',#417,10.9);
#156=CIRCLE('',#418,10.3);
#157=CIRCLE('',#420,10.9);
#158=CIRCLE('',#422,8.4);
#159=CIRCLE('',#424,10.55);
#160=CIRCLE('',#426,9.16666666666666);
#161=CIRCLE('',#428,10.55);
#162=CIRCLE('',#429,10.9);
#163=CIRCLE('',#431,9.16666666666666);
#164=CIRCLE('',#434,8.91666666666666);
#165=CIRCLE('',#435,8.91666666666666);
#166=CIRCLE('',#437,8.91666666666666);
#167=CIRCLE('',#438,8.91666666666666);
#168=CIRCLE('',#441,7.5);
#169=VERTEX_POINT('',#576);
#170=VERTEX_POINT('',#578);
#171=VERTEX_POINT('',#581);
#172=VERTEX_POINT('',#583);
#173=VERTEX_POINT('',#585);
#174=VERTEX_POINT('',#587);
#175=VERTEX_POINT('',#589);
#176=VERTEX_POINT('',#592);
#177=VERTEX_POINT('',#596);
#178=VERTEX_POINT('',#600);
#179=VERTEX_POINT('',#607);
#180=VERTEX_POINT('',#613);
#181=VERTEX_POINT('',#615);
#182=VERTEX_POINT('',#619);
#183=VERTEX_POINT('',#622);
#184=VERTEX_POINT('',#627);
#185=VERTEX_POINT('',#629);
#186=VERTEX_POINT('',#633);
#187=VERTEX_POINT('',#637);
#188=VERTEX_POINT('',#640);
#189=VERTEX_POINT('',#644);
#190=VERTEX_POINT('',#647);
#191=VERTEX_POINT('',#649);
#192=VERTEX_POINT('',#653);
#193=VERTEX_POINT('',#658);
#194=VERTEX_POINT('',#659);
#195=VERTEX_POINT('',#664);
#196=VERTEX_POINT('',#666);
#197=VERTEX_POINT('',#672);
#198=EDGE_CURVE('',#169,#169,#140,.T.);
#199=EDGE_CURVE('',#170,#170,#141,.F.);
#200=EDGE_CURVE('',#171,#171,#142,.T.);
#201=EDGE_CURVE('',#172,#172,#143,.T.);
#202=EDGE_CURVE('',#173,#173,#144,.T.);
#203=EDGE_CURVE('',#174,#174,#145,.T.);
#204=EDGE_CURVE('',#175,#175,#146,.T.);
#205=EDGE_CURVE('',#173,#176,#22,.T.);
#206=EDGE_CURVE('',#176,#176,#147,.F.);
#207=EDGE_CURVE('',#174,#177,#23,.T.);
#208=EDGE_CURVE('',#177,#177,#148,.F.);
#209=EDGE_CURVE('',#175,#178,#24,.T.);
#210=EDGE_CURVE('',#178,#178,#149,.F.);
#211=EDGE_CURVE('',#171,#179,#25,.T.);
#212=EDGE_CURVE('',#179,#179,#150,.T.);
#213=EDGE_CURVE('',#169,#179,#26,.T.);
#214=EDGE_CURVE('',#180,#180,#151,.T.);
#215=EDGE_CURVE('',#180,#181,#27,.T.);
#216=EDGE_CURVE('',#181,#181,#152,.T.);
#217=EDGE_CURVE('',#182,#182,#153,.F.);
#218=EDGE_CURVE('',#183,#183,#154,.T.);
#219=EDGE_CURVE('',#183,#172,#28,.T.);
#220=EDGE_CURVE('',#184,#184,#155,.T.);
#221=EDGE_CURVE('',#184,#185,#29,.T.);
#222=EDGE_CURVE('',#185,#185,#156,.T.);
#223=EDGE_CURVE('',#184,#186,#30,.T.);
#224=EDGE_CURVE('',#186,#186,#157,.T.);
#225=EDGE_CURVE('',#187,#187,#158,.T.);
#226=EDGE_CURVE('',#186,#188,#31,.T.);
#227=EDGE_CURVE('',#188,#188,#159,.T.);
#228=EDGE_CURVE('',#189,#189,#160,.T.);
#229=EDGE_CURVE('',#190,#190,#161,.T.);
#230=EDGE_CURVE('',#190,#191,#32,.T.);
#231=EDGE_CURVE('',#191,#191,#162,.T.);
#232=EDGE_CURVE('',#192,#192,#163,.T.);
#233=EDGE_CURVE('',#191,#170,#33,.T.);
#234=EDGE_CURVE('',#193,#194,#164,.T.);
#235=EDGE_CURVE('',#194,#193,#165,.T.);
#236=EDGE_CURVE('',#193,#189,#34,.T.);
#237=EDGE_CURVE('',#194,#195,#35,.T.);
#238=EDGE_CURVE('',#196,#195,#166,.T.);
#239=EDGE_CURVE('',#195,#196,#167,.T.);
#240=EDGE_CURVE('',#192,#196,#36,.T.);
#241=EDGE_CURVE('',#187,#197,#37,.T.);
#242=EDGE_CURVE('',#197,#197,#168,.T.);
#243=EDGE_CURVE('',#197,#182,#38,.T.);
#244=ORIENTED_EDGE('',*,*,#198,.F.);
#245=ORIENTED_EDGE('',*,*,#199,.T.);
#246=ORIENTED_EDGE('',*,*,#200,.T.);
#247=ORIENTED_EDGE('',*,*,#201,.T.);
#248=ORIENTED_EDGE('',*,*,#202,.T.);
#249=ORIENTED_EDGE('',*,*,#203,.T.);
#250=ORIENTED_EDGE('',*,*,#204,.T.);
#251=ORIENTED_EDGE('',*,*,#202,.F.);
#252=ORIENTED_EDGE('',*,*,#205,.T.);
#253=ORIENTED_EDGE('',*,*,#206,.F.);
#254=ORIENTED_EDGE('',*,*,#205,.F.);
#255=ORIENTED_EDGE('',*,*,#203,.F.);
#256=ORIENTED_EDGE('',*,*,#207,.T.);
#257=ORIENTED_EDGE('',*,*,#208,.F.);
#258=ORIENTED_EDGE('',*,*,#207,.F.);
#259=ORIENTED_EDGE('',*,*,#204,.F.);
#260=ORIENTED_EDGE('',*,*,#209,.T.);
#261=ORIENTED_EDGE('',*,*,#210,.F.);
#262=ORIENTED_EDGE('',*,*,#209,.F.);
#263=ORIENTED_EDGE('',*,*,#210,.T.);
#264=ORIENTED_EDGE('',*,*,#208,.T.);
#265=ORIENTED_EDGE('',*,*,#206,.T.);
#266=ORIENTED_EDGE('',*,*,#200,.F.);
#267=ORIENTED_EDGE('',*,*,#211,.T.);
#268=ORIENTED_EDGE('',*,*,#212,.F.);
#269=ORIENTED_EDGE('',*,*,#211,.F.);
#270=ORIENTED_EDGE('',*,*,#198,.T.);
#271=ORIENTED_EDGE('',*,*,#213,.T.);
#272=ORIENTED_EDGE('',*,*,#212,.T.);
#273=ORIENTED_EDGE('',*,*,#213,.F.);
#274=ORIENTED_EDGE('',*,*,#214,.F.);
#275=ORIENTED_EDGE('',*,*,#215,.T.);
#276=ORIENTED_EDGE('',*,*,#216,.F.);
#277=ORIENTED_EDGE('',*,*,#215,.F.);
#278=ORIENTED_EDGE('',*,*,#217,.T.);
#279=ORIENTED_EDGE('',*,*,#216,.T.);
#280=ORIENTED_EDGE('',*,*,#218,.T.);
#281=ORIENTED_EDGE('',*,*,#214,.T.);
#282=ORIENTED_EDGE('',*,*,#218,.F.);
#283=ORIENTED_EDGE('',*,*,#219,.T.);
#284=ORIENTED_EDGE('',*,*,#201,.F.);
#285=ORIENTED_EDGE('',*,*,#219,.F.);
#286=ORIENTED_EDGE('',*,*,#220,.T.);
#287=ORIENTED_EDGE('',*,*,#221,.T.);
#288=ORIENTED_EDGE('',*,*,#222,.T.);
#289=ORIENTED_EDGE('',*,*,#221,.F.);
#290=ORIENTED_EDGE('',*,*,#220,.F.);
#291=ORIENTED_EDGE('',*,*,#223,.T.);
#292=ORIENTED_EDGE('',*,*,#224,.F.);
#293=ORIENTED_EDGE('',*,*,#223,.F.);
#294=ORIENTED_EDGE('',*,*,#222,.F.);
#295=ORIENTED_EDGE('',*,*,#225,.F.);
#296=ORIENTED_EDGE('',*,*,#224,.T.);
#297=ORIENTED_EDGE('',*,*,#226,.T.);
#298=ORIENTED_EDGE('',*,*,#227,.T.);
#299=ORIENTED_EDGE('',*,*,#226,.F.);
#300=ORIENTED_EDGE('',*,*,#227,.F.);
#301=ORIENTED_EDGE('',*,*,#228,.F.);
#302=ORIENTED_EDGE('',*,*,#229,.T.);
#303=ORIENTED_EDGE('',*,*,#230,.T.);
#304=ORIENTED_EDGE('',*,*,#231,.T.);
#305=ORIENTED_EDGE('',*,*,#230,.F.);
#306=ORIENTED_EDGE('',*,*,#229,.F.);
#307=ORIENTED_EDGE('',*,*,#232,.F.);
#308=ORIENTED_EDGE('',*,*,#231,.F.);
#309=ORIENTED_EDGE('',*,*,#233,.T.);
#310=ORIENTED_EDGE('',*,*,#199,.F.);
#311=ORIENTED_EDGE('',*,*,#233,.F.);
#312=ORIENTED_EDGE('',*,*,#234,.T.);
#313=ORIENTED_EDGE('',*,*,#235,.T.);
#314=ORIENTED_EDGE('',*,*,#236,.T.);
#315=ORIENTED_EDGE('',*,*,#228,.T.);
#316=ORIENTED_EDGE('',*,*,#236,.F.);
#317=ORIENTED_EDGE('',*,*,#234,.F.);
#318=ORIENTED_EDGE('',*,*,#235,.F.);
#319=ORIENTED_EDGE('',*,*,#237,.T.);
#320=ORIENTED_EDGE('',*,*,#238,.F.);
#321=ORIENTED_EDGE('',*,*,#239,.F.);
#322=ORIENTED_EDGE('',*,*,#237,.F.);
#323=ORIENTED_EDGE('',*,*,#232,.T.);
#324=ORIENTED_EDGE('',*,*,#240,.T.);
#325=ORIENTED_EDGE('',*,*,#238,.T.);
#326=ORIENTED_EDGE('',*,*,#239,.T.);
#327=ORIENTED_EDGE('',*,*,#240,.F.);
#328=ORIENTED_EDGE('',*,*,#225,.T.);
#329=ORIENTED_EDGE('',*,*,#241,.T.);
#330=ORIENTED_EDGE('',*,*,#242,.T.);
#331=ORIENTED_EDGE('',*,*,#241,.F.);
#332=ORIENTED_EDGE('',*,*,#242,.F.);
#333=ORIENTED_EDGE('',*,*,#243,.T.);
#334=ORIENTED_EDGE('',*,*,#217,.F.);
#335=ORIENTED_EDGE('',*,*,#243,.F.);
#336=PLANE('',#387);
#337=PLANE('',#390);
#338=PLANE('',#402);
#339=PLANE('',#403);
#340=PLANE('',#404);
#341=PLANE('',#411);
#342=PLANE('',#413);
#343=PLANE('',#421);
#344=PLANE('',#425);
#345=PLANE('',#430);
#346=ADVANCED_FACE('',(#76,#66),#336,.T.);
#347=ADVANCED_FACE('',(#77,#67,#68,#69,#70),#337,.F.);
#348=ADVANCED_FACE('',(#78),#56,.F.);
#349=ADVANCED_FACE('',(#79),#57,.F.);
#350=ADVANCED_FACE('',(#80),#58,.F.);
#351=ADVANCED_FACE('',(#81),#338,.F.);
#352=ADVANCED_FACE('',(#82),#339,.F.);
#353=ADVANCED_FACE('',(#83),#340,.F.);
#354=ADVANCED_FACE('',(#84),#59,.T.);
#355=ADVANCED_FACE('',(#85),#15,.T.);
#356=ADVANCED_FACE('',(#86),#60,.F.);
#357=ADVANCED_FACE('',(#87,#71),#341,.T.);
#358=ADVANCED_FACE('',(#88,#72),#342,.T.);
#359=ADVANCED_FACE('',(#89),#61,.T.);
#360=ADVANCED_FACE('',(#90),#16,.T.);
#361=ADVANCED_FACE('',(#91),#62,.T.);
#362=ADVANCED_FACE('',(#92,#73),#343,.F.);
#363=ADVANCED_FACE('',(#93),#17,.T.);
#364=ADVANCED_FACE('',(#94,#74),#344,.F.);
#365=ADVANCED_FACE('',(#95),#18,.T.);
#366=ADVANCED_FACE('',(#96,#75),#345,.F.);
#367=ADVANCED_FACE('',(#97),#63,.T.);
#368=ADVANCED_FACE('',(#98),#19,.T.);
#369=ADVANCED_FACE('',(#99),#64,.T.);
#370=ADVANCED_FACE('',(#100),#20,.T.);
#371=ADVANCED_FACE('',(#101),#21,.F.);
#372=ADVANCED_FACE('',(#102),#65,.F.);
#373=CLOSED_SHELL('',(#346,#347,#348,#349,#350,#351,#352,#353,#354,#355,
#356,#357,#358,#359,#360,#361,#362,#363,#364,#365,#366,#367,#368,#369,#370,
#371,#372));
#374=DERIVED_UNIT_ELEMENT(#376,1.);
#375=DERIVED_UNIT_ELEMENT(#682,-3.);
#376=(
MASS_UNIT()
NAMED_UNIT(*)
SI_UNIT(.KILO.,.GRAM.)
);
#377=DERIVED_UNIT((#374,#375));
#378=MEASURE_REPRESENTATION_ITEM('density measure',
POSITIVE_RATIO_MEASURE(7850.),#377);
#379=PROPERTY_DEFINITION_REPRESENTATION(#384,#381);
#380=PROPERTY_DEFINITION_REPRESENTATION(#385,#382);
#381=REPRESENTATION('material name',(#383),#679);
#382=REPRESENTATION('density',(#378),#679);
#383=DESCRIPTIVE_REPRESENTATION_ITEM('Steel','Steel');
#384=PROPERTY_DEFINITION('material property','material name',#689);
#385=PROPERTY_DEFINITION('material property','density of part',#689);
#386=AXIS2_PLACEMENT_3D('',#574,#443,#444);
#387=AXIS2_PLACEMENT_3D('',#575,#445,#446);
#388=AXIS2_PLACEMENT_3D('',#577,#447,#448);
#389=AXIS2_PLACEMENT_3D('',#579,#449,#450);
#390=AXIS2_PLACEMENT_3D('',#580,#451,#452);
#391=AXIS2_PLACEMENT_3D('',#582,#453,#454);
#392=AXIS2_PLACEMENT_3D('',#584,#455,#456);
#393=AXIS2_PLACEMENT_3D('',#586,#457,#458);
#394=AXIS2_PLACEMENT_3D('',#588,#459,#460);
#395=AXIS2_PLACEMENT_3D('',#590,#461,#462);
#396=AXIS2_PLACEMENT_3D('',#591,#463,#464);
#397=AXIS2_PLACEMENT_3D('',#594,#466,#467);
#398=AXIS2_PLACEMENT_3D('',#595,#468,#469);
#399=AXIS2_PLACEMENT_3D('',#598,#471,#472);
#400=AXIS2_PLACEMENT_3D('',#599,#473,#474);
#401=AXIS2_PLACEMENT_3D('',#602,#476,#477);
#402=AXIS2_PLACEMENT_3D('',#603,#478,#479);
#403=AXIS2_PLACEMENT_3D('',#604,#480,#481);
#404=AXIS2_PLACEMENT_3D('',#605,#482,#483);
#405=AXIS2_PLACEMENT_3D('',#606,#484,#485);
#406=AXIS2_PLACEMENT_3D('',#609,#487,#488);
#407=AXIS2_PLACEMENT_3D('',#610,#489,#490);
#408=AXIS2_PLACEMENT_3D('',#612,#492,#493);
#409=AXIS2_PLACEMENT_3D('',#614,#494,#495);
#410=AXIS2_PLACEMENT_3D('',#617,#497,#498);
#411=AXIS2_PLACEMENT_3D('',#618,#499,#500);
#412=AXIS2_PLACEMENT_3D('',#620,#501,#502);
#413=AXIS2_PLACEMENT_3D('',#621,#503,#504);
#414=AXIS2_PLACEMENT_3D('',#623,#505,#506);
#415=AXIS2_PLACEMENT_3D('',#624,#507,#508);
#416=AXIS2_PLACEMENT_3D('',#626,#510,#511);
#417=AXIS2_PLACEMENT_3D('',#628,#512,#513);
#418=AXIS2_PLACEMENT_3D('',#631,#515,#516);
#419=AXIS2_PLACEMENT_3D('',#632,#517,#518);
#420=AXIS2_PLACEMENT_3D('',#635,#520,#521);
#421=AXIS2_PLACEMENT_3D('',#636,#522,#523);
#422=AXIS2_PLACEMENT_3D('',#638,#524,#525);
#423=AXIS2_PLACEMENT_3D('',#639,#526,#527);
#424=AXIS2_PLACEMENT_3D('',#642,#529,#530);
#425=AXIS2_PLACEMENT_3D('',#643,#531,#532);
#426=AXIS2_PLACEMENT_3D('',#645,#533,#534);
#427=AXIS2_PLACEMENT_3D('',#646,#535,#536);
#428=AXIS2_PLACEMENT_3D('',#648,#537,#538);
#429=AXIS2_PLACEMENT_3D('',#651,#540,#541);
#430=AXIS2_PLACEMENT_3D('',#652,#542,#543);
#431=AXIS2_PLACEMENT_3D('',#654,#544,#545);
#432=AXIS2_PLACEMENT_3D('',#655,#546,#547);
#433=AXIS2_PLACEMENT_3D('',#657,#549,#550);
#434=AXIS2_PLACEMENT_3D('',#660,#551,#552);
#435=AXIS2_PLACEMENT_3D('',#661,#553,#554);
#436=AXIS2_PLACEMENT_3D('',#663,#556,#557);
#437=AXIS2_PLACEMENT_3D('',#667,#559,#560);
#438=AXIS2_PLACEMENT_3D('',#668,#561,#562);
#439=AXIS2_PLACEMENT_3D('',#669,#563,#564);
#440=AXIS2_PLACEMENT_3D('',#671,#566,#567);
#441=AXIS2_PLACEMENT_3D('',#674,#569,#570);
#442=AXIS2_PLACEMENT_3D('',#675,#571,#572);
#443=DIRECTION('axis',(0.,0.,1.));
#444=DIRECTION('refdir',(1.,0.,0.));
#445=DIRECTION('center_axis',(1.,0.,0.));
#446=DIRECTION('ref_axis',(0.,1.,0.));
#447=DIRECTION('center_axis',(-1.,0.,0.));
#448=DIRECTION('ref_axis',(0.,1.,0.));
#449=DIRECTION('center_axis',(1.,0.,0.));
#450=DIRECTION('ref_axis',(-5.96744875736018E-16,1.,3.81395874986942E-15));
#451=DIRECTION('center_axis',(1.,0.,0.));
#452=DIRECTION('ref_axis',(0.,1.,0.));
#453=DIRECTION('center_axis',(-1.,0.,0.));
#454=DIRECTION('ref_axis',(0.,1.,0.));
#455=DIRECTION('center_axis',(1.,0.,0.));
#456=DIRECTION('ref_axis',(0.,-1.,0.));
#457=DIRECTION('center_axis',(1.,0.,0.));
#458=DIRECTION('ref_axis',(0.,1.,0.));
#459=DIRECTION('center_axis',(1.,0.,0.));
#460=DIRECTION('ref_axis',(0.,1.,0.));
#461=DIRECTION('center_axis',(1.,0.,0.));
#462=DIRECTION('ref_axis',(0.,1.,0.));
#463=DIRECTION('center_axis',(-1.,0.,0.));
#464=DIRECTION('ref_axis',(0.,1.,0.));
#465=DIRECTION('',(1.,0.,0.));
#466=DIRECTION('center_axis',(1.,0.,0.));
#467=DIRECTION('ref_axis',(0.,1.,0.));
#468=DIRECTION('center_axis',(-1.,0.,0.));
#469=DIRECTION('ref_axis',(0.,1.,0.));
#470=DIRECTION('',(1.,0.,0.));
#471=DIRECTION('center_axis',(1.,0.,0.));
#472=DIRECTION('ref_axis',(0.,1.,0.));
#473=DIRECTION('center_axis',(-1.,0.,0.));
#474=DIRECTION('ref_axis',(0.,1.,0.));
#475=DIRECTION('',(1.,0.,0.));
#476=DIRECTION('center_axis',(1.,0.,0.));
#477=DIRECTION('ref_axis',(0.,1.,0.));
#478=DIRECTION('center_axis',(1.,0.,0.));
#479=DIRECTION('ref_axis',(0.,1.,0.));
#480=DIRECTION('center_axis',(1.,0.,0.));
#481=DIRECTION('ref_axis',(0.,1.,0.));
#482=DIRECTION('center_axis',(1.,0.,0.));
#483=DIRECTION('ref_axis',(0.,1.,0.));
#484=DIRECTION('center_axis',(-1.,0.,0.));
#485=DIRECTION('ref_axis',(0.,1.,0.));
#486=DIRECTION('',(1.,0.,0.));
#487=DIRECTION('center_axis',(1.,0.,0.));
#488=DIRECTION('ref_axis',(0.,1.,0.));
#489=DIRECTION('center_axis',(-1.,0.,0.));
#490=DIRECTION('ref_axis',(0.,1.,0.));
#491=DIRECTION('',(-0.707106781186548,-0.707106781186547,-8.65956056235493E-17));
#492=DIRECTION('center_axis',(-1.,0.,0.));
#493=DIRECTION('ref_axis',(0.,1.,0.));
#494=DIRECTION('center_axis',(1.,0.,0.));
#495=DIRECTION('ref_axis',(0.,-1.,0.));
#496=DIRECTION('',(1.,0.,0.));
#497=DIRECTION('center_axis',(-1.,0.,0.));
#498=DIRECTION('ref_axis',(0.,1.,0.));
#499=DIRECTION('center_axis',(1.,0.,0.));
#500=DIRECTION('ref_axis',(0.,1.,0.));
#501=DIRECTION('center_axis',(-1.,0.,0.));
#502=DIRECTION('ref_axis',(-5.96744875736018E-16,1.,3.8139587498697E-15));
#503=DIRECTION('center_axis',(-1.,0.,0.));
#504=DIRECTION('ref_axis',(0.,-1.,0.));
#505=DIRECTION('center_axis',(-1.,0.,0.));
#506=DIRECTION('ref_axis',(0.,-1.,0.));
#507=DIRECTION('center_axis',(-1.,0.,0.));
#508=DIRECTION('ref_axis',(0.,-1.,0.));
#509=DIRECTION('',(1.,0.,0.));
#510=DIRECTION('center_axis',(-1.,-5.96744875736018E-16,-1.1339875512552E-30));
#511=DIRECTION('ref_axis',(-5.96744875736018E-16,1.,3.81395874986942E-15));
#512=DIRECTION('center_axis',(1.,5.96744875736018E-16,1.1339875512552E-30));
#513=DIRECTION('ref_axis',(-5.96744875736018E-16,1.,3.81395874986942E-15));
#514=DIRECTION('',(0.707106781186547,0.707106781186548,2.61028048957489E-15));
#515=DIRECTION('center_axis',(-1.,-5.96744875736018E-16,-1.1339875512552E-30));
#516=DIRECTION('ref_axis',(-5.96744875736018E-16,1.,3.81395874986942E-15));
#517=DIRECTION('center_axis',(-1.,-5.96744875736018E-16,-1.1339875512552E-30));
#518=DIRECTION('ref_axis',(-5.96744875736018E-16,1.,3.81395874986942E-15));
#519=DIRECTION('',(-1.,-5.96744875736018E-16,-1.1339875512552E-30));
#520=DIRECTION('center_axis',(-1.,-5.96744875736018E-16,-1.1339875512552E-30));
#521=DIRECTION('ref_axis',(-5.96744875736018E-16,1.,3.81395874986942E-15));
#522=DIRECTION('center_axis',(-1.,-5.96744875736018E-16,-1.1339875512552E-30));
#523=DIRECTION('ref_axis',(1.1339875512552E-30,-3.81396573373918E-15,1.));
#524=DIRECTION('center_axis',(1.,5.96744875736018E-16,1.1339875512552E-30));
#525=DIRECTION('ref_axis',(-5.96744875736018E-16,1.,3.8139587498697E-15));
#526=DIRECTION('center_axis',(1.,5.96744875736018E-16,1.1339875512552E-30));
#527=DIRECTION('ref_axis',(-5.96744875736018E-16,1.,3.81395874986943E-15));
#528=DIRECTION('',(-0.707106781186548,0.707106781186547,2.78347170082199E-15));
#529=DIRECTION('center_axis',(1.,5.96744875736018E-16,1.1339875512552E-30));
#530=DIRECTION('ref_axis',(-5.96744875736018E-16,1.,3.81395874986942E-15));
#531=DIRECTION('center_axis',(1.,5.96744875736018E-16,1.1339875512552E-30));
#532=DIRECTION('ref_axis',(-1.1339875512552E-30,3.81396573373918E-15,-1.));
#533=DIRECTION('center_axis',(-1.,-5.96744875736018E-16,-1.1339875512552E-30));
#534=DIRECTION('ref_axis',(-1.12950538702099E-30,3.81396573373918E-15,-1.));
#535=DIRECTION('center_axis',(-1.,-5.96744875736018E-16,-1.1339875512552E-30));
#536=DIRECTION('ref_axis',(-5.96744875736018E-16,1.,3.81395874986943E-15));
#537=DIRECTION('center_axis',(-1.,-5.96744875736018E-16,-1.1339875512552E-30));
#538=DIRECTION('ref_axis',(-5.96744875736018E-16,1.,3.81395874986942E-15));
#539=DIRECTION('',(-0.707106781186547,-0.707106781186548,-2.78347170082199E-15));
#540=DIRECTION('center_axis',(1.,5.96744875736018E-16,1.1339875512552E-30));
#541=DIRECTION('ref_axis',(-5.96744875736018E-16,1.,3.81395874986942E-15));
#542=DIRECTION('center_axis',(-1.,-5.96744875736018E-16,-1.1339875512552E-30));
#543=DIRECTION('ref_axis',(1.1339875512552E-30,-3.81396573373918E-15,1.));
#544=DIRECTION('center_axis',(1.,5.96744875736018E-16,1.1339875512552E-30));
#545=DIRECTION('ref_axis',(-1.12950538702099E-30,3.81396573373918E-15,-1.));
#546=DIRECTION('center_axis',(-1.,-5.96744875736018E-16,-1.1339875512552E-30));
#547=DIRECTION('ref_axis',(-5.96744875736018E-16,1.,3.81395874986942E-15));
#548=DIRECTION('',(-1.,-5.96744875736018E-16,-1.1339875512552E-30));
#549=DIRECTION('center_axis',(1.,5.96744875736018E-16,1.1339875512552E-30));
#550=DIRECTION('ref_axis',(-1.14512066886921E-30,3.81396573373918E-15,-1.));
#551=DIRECTION('center_axis',(1.,5.96744875736018E-16,1.1339875512552E-30));
#552=DIRECTION('ref_axis',(-1.16117376235803E-30,3.81396573373918E-15,-1.));
#553=DIRECTION('center_axis',(1.,5.96744875736018E-16,1.1339875512552E-30));
#554=DIRECTION('ref_axis',(-1.16117376235803E-30,3.81396573373918E-15,-1.));
#555=DIRECTION('',(0.707106781186546,-2.1883230796453E-15,0.707106781186549));
#556=DIRECTION('center_axis',(-1.,-5.96744875736018E-16,-1.1339875512552E-30));
#557=DIRECTION('ref_axis',(1.16117376235803E-30,-3.81396573373918E-15,1.));
#558=DIRECTION('',(-1.,-5.96744875736018E-16,-1.1339875512552E-30));
#559=DIRECTION('center_axis',(-1.,-5.96744875736018E-16,-1.1339875512552E-30));
#560=DIRECTION('ref_axis',(-1.16117376235803E-30,3.81396573373918E-15,-1.));
#561=DIRECTION('center_axis',(-1.,-5.96744875736018E-16,-1.1339875512552E-30));
#562=DIRECTION('ref_axis',(-1.16117376235803E-30,3.81396573373918E-15,-1.));
#563=DIRECTION('center_axis',(-1.,-5.96744875736018E-16,-1.1339875512552E-30));
#564=DIRECTION('ref_axis',(-1.14512066886921E-30,3.81396573373918E-15,-1.));
#565=DIRECTION('',(0.707106781186546,3.03224777618782E-15,-0.707106781186549));
#566=DIRECTION('center_axis',(1.,5.96744875736018E-16,1.1339875512552E-30));
#567=DIRECTION('ref_axis',(-5.96744875736018E-16,1.,3.8139587498697E-15));
#568=DIRECTION('',(-0.707106781186548,0.707106781186547,2.78347170082218E-15));
#569=DIRECTION('center_axis',(-1.,-5.96744875736018E-16,-1.1339875512552E-30));
#570=DIRECTION('ref_axis',(-5.96744875736018E-16,1.,3.8139587498697E-15));
#571=DIRECTION('center_axis',(-1.,-5.96744875736018E-16,-1.1339875512552E-30));
#572=DIRECTION('ref_axis',(-5.96744875736018E-16,1.,3.8139587498697E-15));
#573=DIRECTION('',(-1.,-5.96744875736018E-16,-1.1339875512552E-30));
#574=CARTESIAN_POINT('',(0.,0.,0.));
#575=CARTESIAN_POINT('Origin',(2.,0.,0.));
#576=CARTESIAN_POINT('',(2.,-13.875,1.69919743381695E-15));
#577=CARTESIAN_POINT('Origin',(2.,0.,0.));
#578=CARTESIAN_POINT('',(2.00000000000001,-10.8999999999998,-2.29230009413945E-14));
#579=CARTESIAN_POINT('Origin',(2.,2.33979502439752E-13,1.99840144432528E-14));
#580=CARTESIAN_POINT('Origin',(-5.,0.,0.));
#581=CARTESIAN_POINT('',(-5.,-15.875,-2.22044604925031E-15));
#582=CARTESIAN_POINT('Origin',(-5.,0.,0.));
#583=CARTESIAN_POINT('',(-5.,10.,-1.22464679914735E-15));
#584=CARTESIAN_POINT('Origin',(-5.,0.,0.));
#585=CARTESIAN_POINT('',(-5.,-12.3929264386057,-6.42499999998596));
#586=CARTESIAN_POINT('Origin',(-5.,-11.1284264386057,-6.42499999998596));
#587=CARTESIAN_POINT('',(-5.,9.86392643860572,-6.42499999998597));
#588=CARTESIAN_POINT('Origin',(-5.,11.1284264386057,-6.42499999998597));
#589=CARTESIAN_POINT('',(-5.,-1.2645,12.8499999999719));
#590=CARTESIAN_POINT('Origin',(-5.,1.62041682305948E-15,12.8499999999719));
#591=CARTESIAN_POINT('Origin',(0.,-11.1284264386057,-6.42499999998596));
#592=CARTESIAN_POINT('',(0.,-12.3929264386057,-6.42499999998596));
#593=CARTESIAN_POINT('',(0.,-12.3929264386057,-6.42499999998596));
#594=CARTESIAN_POINT('Origin',(0.,-11.1284264386057,-6.42499999998596));
#595=CARTESIAN_POINT('Origin',(0.,11.1284264386057,-6.42499999998597));
#596=CARTESIAN_POINT('',(0.,9.86392643860572,-6.42499999998597));
#597=CARTESIAN_POINT('',(0.,9.86392643860572,-6.42499999998597));
#598=CARTESIAN_POINT('Origin',(0.,11.1284264386057,-6.42499999998597));
#599=CARTESIAN_POINT('Origin',(0.,1.62041682305948E-15,12.8499999999719));
#600=CARTESIAN_POINT('',(0.,-1.2645,12.8499999999719));
#601=CARTESIAN_POINT('',(0.,-1.2645,12.8499999999719));
#602=CARTESIAN_POINT('Origin',(0.,1.62041682305948E-15,12.8499999999719));
#603=CARTESIAN_POINT('Origin',(0.,0.,0.));
#604=CARTESIAN_POINT('Origin',(0.,0.,0.));
#605=CARTESIAN_POINT('Origin',(0.,0.,0.));
#606=CARTESIAN_POINT('Origin',(0.,0.,0.));
#607=CARTESIAN_POINT('',(0.,-15.875,-1.94412679364642E-15));
#608=CARTESIAN_POINT('',(0.,-15.875,1.94412679364642E-15));
#609=CARTESIAN_POINT('Origin',(0.,0.,0.));
#610=CARTESIAN_POINT('Origin',(1.,0.,0.));
#611=CARTESIAN_POINT('',(1.,-14.875,-1.82166211373169E-15));
#612=CARTESIAN_POINT('Origin',(0.,0.,0.));
#613=CARTESIAN_POINT('',(-8.175,-7.1375,8.74091652891423E-16));
#614=CARTESIAN_POINT('Origin',(-8.175,0.,0.));
#615=CARTESIAN_POINT('',(2.,-7.1375,-8.74091652891423E-16));
#616=CARTESIAN_POINT('',(0.,-7.1375,8.74091652891423E-16));
#617=CARTESIAN_POINT('Origin',(2.,0.,0.));
#618=CARTESIAN_POINT('Origin',(2.,0.,0.));
#619=CARTESIAN_POINT('',(2.,-7.49999999999977,-7.70219108140947E-15));
#620=CARTESIAN_POINT('Origin',(2.,2.33979502439752E-13,1.99840144432528E-14));
#621=CARTESIAN_POINT('Origin',(-8.175,0.,0.));
#622=CARTESIAN_POINT('',(-8.175,10.,-1.22464679914735E-15));
#623=CARTESIAN_POINT('Origin',(-8.175,0.,0.));
#624=CARTESIAN_POINT('Origin',(-5.,0.,0.));
#625=CARTESIAN_POINT('',(-5.,10.,-1.22464679914735E-15));
#626=CARTESIAN_POINT('Origin',(21.7499999999997,2.45914399954472E-13,1.99840144432528E-14));
#627=CARTESIAN_POINT('',(21.3999999999997,-10.8999999999997,-2.29230009413945E-14));
#628=CARTESIAN_POINT('Origin',(21.3999999999997,2.45556353029031E-13,1.99840144432528E-14));
#629=CARTESIAN_POINT('',(21.9999999999997,-10.2999999999997,-1.55431223447522E-14));
#630=CARTESIAN_POINT('',(21.7499999999997,-10.5499999999998,-1.89612479947691E-14));
#631=CARTESIAN_POINT('Origin',(21.9999999999997,2.45914399954472E-13,1.99840144432528E-14));
#632=CARTESIAN_POINT('Origin',(21.9999999999997,2.45914399954472E-13,1.99840144432528E-14));
#633=CARTESIAN_POINT('',(18.8499999999997,-10.8999999999998,-2.02532709192533E-14));
#634=CARTESIAN_POINT('',(21.9999999999997,-10.8999999999997,-2.02532709192533E-14));
#635=CARTESIAN_POINT('Origin',(18.8499999999997,2.44034653595904E-13,1.99840144432528E-14));
#636=CARTESIAN_POINT('Origin',(21.9999999999997,0.0228511630059303,-2.13755282585382E-6));
#637=CARTESIAN_POINT('',(21.9999999999997,-8.39999999999976,-6.66133814775094E-15));
#638=CARTESIAN_POINT('Origin',(21.9999999999997,2.45914399954472E-13,1.99840144432528E-14));
#639=CARTESIAN_POINT('Origin',(18.6249999999997,2.43693953905222E-13,1.99840144432528E-14));
#640=CARTESIAN_POINT('',(18.4999999999997,-10.5499999999998,-1.55431223447522E-14));
#641=CARTESIAN_POINT('',(18.6249999999997,-10.6749999999998,-2.20373056696931E-14));
#642=CARTESIAN_POINT('Origin',(18.4999999999997,2.43693953905222E-13,1.99840144432528E-14));
#643=CARTESIAN_POINT('Origin',(18.4999999999997,2.00395255944841E-13,11.4166666666667));
#644=CARTESIAN_POINT('',(18.4999999999997,2.10387263166467E-13,9.16666666666669));
#645=CARTESIAN_POINT('Origin',(18.4999999999997,2.43693953905222E-13,1.99840144432528E-14));
#646=CARTESIAN_POINT('Origin',(14.8749999999997,2.41473507855972E-13,1.99840144432528E-14));
#647=CARTESIAN_POINT('',(14.9999999999997,-10.5499999999998,-1.55431223447522E-14));
#648=CARTESIAN_POINT('Origin',(14.9999999999997,2.41473507855972E-13,1.99840144432528E-14));
#649=CARTESIAN_POINT('',(14.6499999999997,-10.8999999999998,-2.29230009413945E-14));
#650=CARTESIAN_POINT('',(14.8749999999997,-10.6749999999998,-2.20373056696931E-14));
#651=CARTESIAN_POINT('Origin',(14.6499999999997,2.41528325117812E-13,1.99840144432528E-14));
#652=CARTESIAN_POINT('Origin',(14.9999999999997,2.07611705604904E-13,8.91666666666669));
#653=CARTESIAN_POINT('',(14.9999999999997,2.05946371067967E-13,9.16666666666669));
#654=CARTESIAN_POINT('Origin',(14.9999999999997,2.41473507855972E-13,1.99840144432528E-14));
#655=CARTESIAN_POINT('Origin',(21.9999999999997,2.45914399954472E-13,1.99840144432528E-14));
#656=CARTESIAN_POINT('',(21.9999999999997,-10.8999999999997,-2.02532709192533E-14));
#657=CARTESIAN_POINT('Origin',(18.3749999999997,2.43693953905222E-13,1.99840144432528E-14));
#658=CARTESIAN_POINT('',(18.2499999999997,2.08721928629529E-13,8.91666666666669));
#659=CARTESIAN_POINT('',(18.2499999999997,2.76394732590802E-13,-8.91666666666664));
#660=CARTESIAN_POINT('Origin',(18.2499999999997,2.43693953905222E-13,1.99840144432528E-14));
#661=CARTESIAN_POINT('Origin',(18.2499999999997,2.43693953905222E-13,1.99840144432528E-14));
#662=CARTESIAN_POINT('',(18.3749999999997,2.10316631876893E-13,9.04166666666668));
#663=CARTESIAN_POINT('Origin',(16.7499999999997,2.42583730880597E-13,1.99840144432528E-14));
#664=CARTESIAN_POINT('',(15.2499999999997,2.74604497963594E-13,-8.91666666666664));
#665=CARTESIAN_POINT('',(16.7499999999997,2.75499615277198E-13,-8.91666666666664));
#666=CARTESIAN_POINT('',(15.2499999999997,2.08721928629529E-13,8.91666666666669));
#667=CARTESIAN_POINT('Origin',(15.2499999999997,2.42028619368284E-13,1.99840144432528E-14));
#668=CARTESIAN_POINT('Origin',(15.2499999999997,2.42028619368284E-13,1.99840144432528E-14));
#669=CARTESIAN_POINT('Origin',(15.1249999999997,2.41473507855972E-13,1.99840144432528E-14));
#670=CARTESIAN_POINT('',(15.1249999999997,2.08096185827642E-13,9.04166666666668));
#671=CARTESIAN_POINT('Origin',(21.7499999999997,2.45914399954472E-13,1.99840144432528E-14));
#672=CARTESIAN_POINT('',(21.0999999999997,-7.49999999999976,-7.70219108140945E-15));
#673=CARTESIAN_POINT('',(21.7499999999997,-8.14999999999976,-1.20978365094904E-14));
#674=CARTESIAN_POINT('Origin',(21.0999999999997,2.4537732956631E-13,1.99840144432528E-14));
#675=CARTESIAN_POINT('Origin',(21.9999999999997,2.45914399954472E-13,1.99840144432528E-14));
#676=CARTESIAN_POINT('',(21.9999999999997,-7.49999999999976,-7.70219108140945E-15));
#677=UNCERTAINTY_MEASURE_WITH_UNIT(LENGTH_MEASURE(0.01),#681,
'DISTANCE_ACCURACY_VALUE',
'Maximum model space distance between geometric entities at asserted c
onnectivities');
#678=UNCERTAINTY_MEASURE_WITH_UNIT(LENGTH_MEASURE(0.01),#681,
'DISTANCE_ACCURACY_VALUE',
'Maximum model space distance between geometric entities at asserted c
onnectivities');
#679=(
GEOMETRIC_REPRESENTATION_CONTEXT(3)
GLOBAL_UNCERTAINTY_ASSIGNED_CONTEXT((#677))
GLOBAL_UNIT_ASSIGNED_CONTEXT((#681,#683,#684))
REPRESENTATION_CONTEXT('','3D')
);
#680=(
GEOMETRIC_REPRESENTATION_CONTEXT(3)
GLOBAL_UNCERTAINTY_ASSIGNED_CONTEXT((#678))
GLOBAL_UNIT_ASSIGNED_CONTEXT((#681,#683,#684))
REPRESENTATION_CONTEXT('','3D')
);
#681=(
LENGTH_UNIT()
NAMED_UNIT(*)
SI_UNIT(.MILLI.,.METRE.)
);
#682=(
LENGTH_UNIT()
NAMED_UNIT(*)
SI_UNIT($,.METRE.)
);
#683=(
NAMED_UNIT(*)
PLANE_ANGLE_UNIT()
SI_UNIT($,.RADIAN.)
);
#684=(
NAMED_UNIT(*)
SI_UNIT($,.STERADIAN.)
SOLID_ANGLE_UNIT()
);
#685=SHAPE_DEFINITION_REPRESENTATION(#686,#687);
#686=PRODUCT_DEFINITION_SHAPE('',$,#689);
#687=SHAPE_REPRESENTATION('',(#386),#679);
#688=PRODUCT_DEFINITION_CONTEXT('part definition',#693,'design');
#689=PRODUCT_DEFINITION('coupler','coupler',#690,#688);
#690=PRODUCT_DEFINITION_FORMATION('',$,#695);
#691=PRODUCT_RELATED_PRODUCT_CATEGORY('coupler','coupler',(#695));
#692=APPLICATION_PROTOCOL_DEFINITION('international standard',
'automotive_design',2009,#693);
#693=APPLICATION_CONTEXT(
'Core Data for Automotive Mechanical Design Process');
#694=PRODUCT_CONTEXT('part definition',#693,'mechanical');
#695=PRODUCT('coupler','coupler',$,(#694));
#696=PRESENTATION_STYLE_ASSIGNMENT((#698));
#697=PRESENTATION_STYLE_ASSIGNMENT((#699));
#698=SURFACE_STYLE_USAGE(.BOTH.,#700);
#699=SURFACE_STYLE_USAGE(.BOTH.,#701);
#700=SURFACE_SIDE_STYLE('',(#702));
#701=SURFACE_SIDE_STYLE('',(#703));
#702=SURFACE_STYLE_FILL_AREA(#704);
#703=SURFACE_STYLE_FILL_AREA(#705);
#704=FILL_AREA_STYLE('Steel - Satin',(#706));
#705=FILL_AREA_STYLE('Aluminum - Satin',(#707));
#706=FILL_AREA_STYLE_COLOUR('Steel - Satin',#708);
#707=FILL_AREA_STYLE_COLOUR('Aluminum - Satin',#709);
#708=COLOUR_RGB('Steel - Satin',0.627450980392157,0.627450980392157,0.627450980392157);
#709=COLOUR_RGB('Aluminum - Satin',0.96078431372549,0.96078431372549,0.964705882352941);
ENDSEC;
END-ISO-10303-21;
